12.34710164, 45.44689259
12.31627923, 45.43239311
12.33677108, 45.43707809
12.31620268, 45.43248281
12.33918716, 45.43697013
12.36170242, 45.42953270
12.36170132, 45.42934589
12.36124829, 45.42960220
12.31312694, 45.42746639
12.36189506, 45.42900982
12.33163579, 45.42975225
12.33042552, 45.44082701
12.33075633, 45.43472368
12.31557949, 45.42890431
12.31467678, 45.42870075
12.31501712, 45.42869914
12.31308357, 45.42759731
12.36057111, 45.42702508
12.31309642, 45.42715051
12.31295568, 45.42702588
12.31254500, 45.42727859
12.32975251, 45.43663123
12.31567534, 45.42789285
12.31597054, 45.42780384
12.36238676, 45.42632167
12.32958177, 45.43645597
12.33329519, 45.43323542
12.36081549, 45.42768067
12.36216858, 45.42672515
12.36065974, 45.42795677
12.36531486, 45.42730850
12.36058565, 45.42743515
12.32884869, 45.43792045
12.36209115, 45.42919046
12.36231209, 45.42718284
12.36240361, 45.42746335
12.31655630, 45.42835316
12.31699864, 45.42832880
12.33357322, 45.43800422
12.33126099, 45.43194751
12.34069929, 45.43940864
12.32318554, 45.43434604
12.36220273, 45.42944055
12.36200201, 45.42941969
12.36229588, 45.42853289
12.36204008, 45.42847622
12.36116803, 45.42802507
12.31697233, 45.42743000
12.36093261, 45.42916026
12.36067192, 45.42901447
12.36074283, 45.42947875
12.32693588, 45.43968346
12.32682910, 45.43966267
12.36245814, 45.42811395
12.34855495, 45.43546546
12.32362420, 45.44025020
12.36149503, 45.42925795
12.36137484, 45.42906507
12.32046957, 45.43896711
12.33158538, 45.44274020
12.36242830, 45.42894253
12.33230518, 45.43290906
12.32132518, 45.43493478
12.32116794, 45.43227464
12.36046330, 45.43010642
12.36188111, 45.42942671
12.36231660, 45.42830388
12.31964456, 45.42839162
12.31476904, 45.42680046
12.31500377, 45.42677041
12.36238535, 45.42939291
12.31628002, 45.42822663
12.31549256, 45.42883126
12.32982510, 45.43948453
12.32922298, 45.44364233
12.32451396, 45.44549137
12.32730406, 45.43773034
12.32603277, 45.43601347
12.33732505, 45.43617713
12.33048857, 45.43933313
12.33393625, 45.43782079
12.33407680, 45.43766773
12.32929076, 45.44359742
12.33219070, 45.43813355
12.33225173, 45.43804520
12.32504016, 45.43624847
12.32139878, 45.43400491
12.36221984, 45.42928510
12.36340778, 45.42809661
12.36420278, 45.42686686
12.36136956, 45.42744258
12.34419536, 45.42815000
12.31558370, 45.42841124
12.31495363, 45.42707991
12.31346804, 45.42826348
12.31356638, 45.42852245
12.31254589, 45.43269115
12.33629080, 45.43420518
12.33925753, 45.43588200
12.33296375, 45.43944140
12.36114477, 45.42918413
12.36175542, 45.42880985
12.36120599, 45.42910571
12.36124045, 45.42894810
12.33552830, 45.43522210
12.32100912, 45.43461101
12.36204156, 45.42676302
12.31527009, 45.42798192
12.36183069, 45.42819980
12.34086628, 45.43616846
12.31397751, 45.42665895
12.36070483, 45.42923623
12.36234847, 45.42792093
12.36123263, 45.42688394
12.33903290, 45.43545915
12.33914603, 45.43550461
12.33182440, 45.44221969
12.32819353, 45.43940857
12.34066034, 45.44028383
12.34044556, 45.44034443
12.33111661, 45.44582748
12.32944586, 45.44451063
12.33689561, 45.43880057
12.32981631, 45.44511330
12.33667874, 45.43881010
12.33018359, 45.44319365
12.33002294, 45.44315280
12.33772469, 45.43975713
12.32117869, 45.44385531
12.34625892, 45.43594763
12.34820742, 45.43712809
12.34819300, 45.43721619
12.34799239, 45.43700058
12.34933878, 45.43357618
12.34804754, 45.43728981
12.34821819, 45.43747156
12.34255972, 45.43418091
12.34248424, 45.43442001
12.34223217, 45.43468092
12.33633832, 45.43340852
12.33632169, 45.43334613
12.33419264, 45.43434284
12.33121002, 45.43406095
12.33144377, 45.43430829
12.33152005, 45.43417573
12.33603041, 45.43406789
12.33760328, 45.43486804
12.33951969, 45.43511514
12.33814282, 45.43624008
12.33320152, 45.43289723
12.33672002, 45.43468913
12.33688956, 45.43706576
12.33383601, 45.43594784
12.33670901, 45.43401782
12.33681522, 45.43773074
12.33916550, 45.43497881
12.33946995, 45.44084759
12.33174898, 45.44211472
12.33659371, 45.44148339
12.33671061, 45.44153738
12.33659478, 45.44148478
12.32231132, 45.44315629
12.33924996, 45.44091247
12.33904934, 45.44100932
12.33940312, 45.44092888
12.32405838, 45.44611858
12.34226631, 45.43387289
12.34233880, 45.43447917
12.33925957, 45.43747842
12.35633589, 45.43336077
12.35915324, 45.43311247
12.34536926, 45.43811864
12.34550766, 45.43826752
12.34949335, 45.43415509
12.34925848, 45.43414551
12.34637592, 45.43724560
12.34616050, 45.43735213
12.34939346, 45.43411534
12.34634956, 45.43705677
12.34416918, 45.43806719
12.33754750, 45.43479406
12.33528655, 45.43526872
12.33534528, 45.43468940
12.33544802, 45.43452328
12.33665232, 45.43568556
12.33829420, 45.43278926
12.32899762, 45.43225851
12.32892874, 45.43233870
12.33235782, 45.43549511
12.33276703, 45.43359548
12.33287696, 45.43359869
12.33292797, 45.43365991
12.33399936, 45.43386854
12.33389640, 45.43361349
12.33675238, 45.43489397
12.33677511, 45.43479623
12.33712735, 45.43366058
12.33849399, 45.43568674
12.33838865, 45.43625852
12.32421915, 45.44627038
12.31872776, 45.44596255
12.33608768, 45.44103210
12.33577889, 45.44174465
12.33060775, 45.44487864
12.33278060, 45.43499751
12.33116004, 45.43511740
12.33077131, 45.43507681
12.33138559, 45.43495355
12.33134167, 45.43503533
12.33098649, 45.43523543
12.33878326, 45.43563035
12.33870241, 45.43567267
12.33742088, 45.43461454
12.33733021, 45.43453701
12.33998996, 45.43559014
12.32909782, 45.43221983
12.32882388, 45.43236232
12.32822838, 45.43397127
12.33514918, 45.43267094
12.33705900, 45.43536927
12.33726827, 45.43552537
12.33685929, 45.43538715
12.33681065, 45.43548813
12.33349546, 45.43588944
12.33569302, 45.43487563
12.33845840, 45.43556608
12.33865719, 45.43597180
12.33552197, 45.43607918
12.33521247, 45.43583385
12.33953102, 45.43521695
12.31798431, 45.44497060
12.34042774, 45.44089314
12.33641600, 45.44429088
12.33826443, 45.43971306
12.32936466, 45.44455274
12.32917649, 45.44454689
12.32902656, 45.44454914
12.34014165, 45.44072005
12.32642726, 45.44630576
12.34043590, 45.43880044
12.32642346, 45.44635077
12.34008515, 45.43569098
12.33720209, 45.43412552
12.33782846, 45.43537419
12.33710512, 45.43344058
12.33701106, 45.43323291
12.33688043, 45.43346225
12.33726161, 45.43341071
12.33301120, 45.43474835
12.33901651, 45.43609538
12.33209199, 45.43300546
12.33189446, 45.43310672
12.33589694, 45.43572052
12.33227564, 45.43297756
12.33947368, 45.43488160
12.32824871, 45.43435605
12.32872973, 45.43412280
12.32859808, 45.43426317
12.32871643, 45.43429816
12.33155888, 45.43277975
12.33117747, 45.43308721
12.33575488, 45.43310505
12.33476072, 45.43336785
12.33553644, 45.43308102
12.33347842, 45.43517111
12.33379235, 45.43532323
12.32166489, 45.44426914
12.32119888, 45.44436195
12.32452821, 45.44324390
12.32910426, 45.44384534
12.31969342, 45.44583998
12.31980984, 45.44593941
12.33213446, 45.44220550
12.33199844, 45.44205928
12.33194662, 45.44210525
12.33160060, 45.43509881
12.33862256, 45.43630111
12.33662811, 45.43592422
12.33923810, 45.43594933
12.33262572, 45.43443380
12.33214979, 45.43498004
12.33228355, 45.43201407
12.33510369, 45.43521429
12.33026474, 45.43497544
12.33517915, 45.43317855
12.33576362, 45.43656047
12.33579894, 45.43656116
12.33564330, 45.43652751
12.33641696, 45.43428285
12.33289579, 45.43444532
12.33263810, 45.43513134
12.33570817, 45.43578107
12.33493159, 45.43548269
12.33616613, 45.43690980
12.33694022, 45.43679681
12.33014482, 45.43436281
12.32965467, 45.43233385
12.33154907, 45.44588545
12.33151340, 45.44556504
12.32859267, 45.44508469
12.32851615, 45.44487593
12.34099795, 45.44258117
12.33410555, 45.44093213
12.33445725, 45.44129687
12.32834817, 45.44301584
12.31961674, 45.44545342
12.31934277, 45.44551259
12.33835363, 45.44385184
12.33727304, 45.43895852
12.33240454, 45.43185432
12.33014693, 45.43186949
12.33000609, 45.43222288
12.33010350, 45.43217468
12.33479728, 45.43422766
12.33627205, 45.43287874
12.33506194, 45.43245526
12.33542235, 45.43268837
12.33551824, 45.43266573
12.33529153, 45.43262062
12.33214466, 45.43325040
12.33235080, 45.43319631
12.32855096, 45.43333750
12.32843687, 45.43322340
12.32869662, 45.43312376
12.33610822, 45.43567546
12.33535522, 45.43519000
12.33812346, 45.43528564
12.33802361, 45.43529332
12.33241247, 45.43310129
12.33646714, 45.43420227
12.33637816, 45.43489374
12.33758709, 45.43248770
12.33293468, 45.43548998
12.33314247, 45.43564688
12.33202560, 45.43423425
12.33438785, 45.43588257
12.33162406, 45.44509442
12.32846714, 45.44593510
12.34203578, 45.44199248
12.32264687, 45.44425655
12.32193419, 45.44363152
12.33873872, 45.44007089
12.33888504, 45.44010797
12.33142500, 45.44377748
12.33788375, 45.44318414
12.33814333, 45.44304905
12.33523729, 45.43668209
12.33512957, 45.43663706
12.33751683, 45.43780848
12.33678538, 45.43374816
12.33621677, 45.43737504
12.32988318, 45.43422176
12.33305640, 45.43411887
12.33320265, 45.43406637
12.33423803, 45.43535866
12.33348693, 45.43391145
12.33760822, 45.43429853
12.33765423, 45.43424972
12.33583396, 45.43718386
12.33430025, 45.43616951
12.33294393, 45.43241957
12.33271419, 45.43486585
12.33275623, 45.43481785
12.33070405, 45.43164297
12.33073700, 45.43182134
12.33078490, 45.43387004
12.33439508, 45.43567838
12.33588202, 45.43620107
12.33730653, 45.43778488
12.31996711, 45.44564613
12.32931215, 45.44808738
12.32875388, 45.44770125
12.32897491, 45.44810248
12.33035814, 45.43387007
12.33580700, 45.43426541
12.33738960, 45.43692566
12.33714858, 45.43696751
12.33160903, 45.43443564
12.34004047, 45.43517204
12.33585986, 45.43565356
12.33133208, 45.43540692
12.33145182, 45.43509647
12.33161875, 45.43519680
12.33411281, 45.43423621
12.33430754, 45.43429615
12.33412962, 45.43456502
12.33435902, 45.43429244
12.33541442, 45.43495112
12.33637164, 45.43531124
12.33403225, 45.43440349
12.32882158, 45.43316197
12.32892334, 45.43294961
12.32900115, 45.43295461
12.32888347, 45.43308899
12.33873049, 45.43574584
12.33886070, 45.43540172
12.33095198, 45.43309990
12.33612228, 45.43467879
12.34099383, 45.43734145
12.34069099, 45.43703016
12.33913060, 45.43875748
12.33935542, 45.43844378
12.34112367, 45.43427785
12.34119657, 45.43433351
12.34873451, 45.43729465
12.34011754, 45.43526958
12.33240328, 45.43373654
12.33557405, 45.43655441
12.33456403, 45.43629022
12.33480593, 45.43659116
12.33409197, 45.43209008
12.32911731, 45.43445646
12.33643815, 45.43579544
12.32884573, 45.43358674
12.32910179, 45.43366953
12.32897586, 45.43374843
12.33796825, 45.43576072
12.33498862, 45.43268006
12.33702503, 45.43716706
12.32892351, 45.43323400
12.33268043, 45.43324030
12.33265101, 45.43361938
12.33659112, 45.43520174
12.33702743, 45.43597599
12.33315607, 45.43378994
12.33308743, 45.43393180
12.32868764, 45.43306684
12.35268264, 45.43193617
12.35265454, 45.43275052
12.35269290, 45.43258225
12.35265312, 45.43209037
12.35264176, 45.43283993
12.34145400, 45.43510272
12.34125168, 45.43497689
12.35546066, 45.43199205
12.35558469, 45.43160641
12.35555814, 45.43123352
12.34151605, 45.43796068
12.33465782, 45.43673217
12.33574803, 45.43391943
12.33520291, 45.43358841
12.33533367, 45.43368338
12.32859242, 45.43385949
12.33477339, 45.43492423
12.33798486, 45.43512402
12.33811478, 45.43505082
12.33747817, 45.43591428
12.33041476, 45.43270343
12.32965984, 45.43372482
12.33180631, 45.43231696
12.32952227, 45.43346653
12.33329187, 45.43557482
12.33311428, 45.43554556
12.32938796, 45.43341065
12.33194508, 45.43221075
12.33000033, 45.43401008
12.33337435, 45.43563975
12.32926812, 45.43335485
12.33072398, 45.43488401
12.33487813, 45.43639959
12.33353218, 45.43561421
12.32896071, 45.43313769
12.32926012, 45.43378142
12.33729453, 45.43818451
12.33725005, 45.43809305
12.33798714, 45.43488493
12.35382043, 45.43179465
12.35397667, 45.43160729
12.34451003, 45.43380810
12.34905132, 45.43700792
12.34765112, 45.43631192
12.34772938, 45.43619021
12.35584208, 45.43129631
12.35458853, 45.43014529
12.33706356, 45.43446644
12.33740272, 45.43421887
12.33390007, 45.43614877
12.33609798, 45.43757522
12.33614307, 45.43750026
12.33379139, 45.43568379
12.33409508, 45.43575388
12.33453495, 45.43393613
12.33354307, 45.43573139
12.33177040, 45.43303222
12.33450340, 45.43384022
12.33088663, 45.43498520
12.33930872, 45.43533227
12.33061462, 45.43406217
12.33119196, 45.43494911
12.32927146, 45.43359138
12.33226770, 45.43522207
12.33207489, 45.43508757
12.33750248, 45.43809430
12.33800827, 45.43476452
12.33615288, 45.43264975
12.33254957, 45.43568026
12.35674626, 45.43089882
12.34811654, 45.43559604
12.33847568, 45.43831834
12.33804895, 45.43771486
12.34178697, 45.43513258
12.34425369, 45.43845582
12.35170213, 45.43184979
12.35160397, 45.43197153
12.35184385, 45.43194175
12.35637107, 45.43323669
12.35661113, 45.43323209
12.32946761, 45.43282313
12.33553350, 45.43494243
12.33554820, 45.43471353
12.33880789, 45.43622616
12.33593011, 45.43351169
12.33555026, 45.43340744
12.33758705, 45.43816783
12.33752661, 45.43795303
12.33739139, 45.43805786
12.33762386, 45.43825268
12.33353489, 45.43254709
12.33349066, 45.43249712
12.33100391, 45.43327105
12.33441617, 45.43249913
12.32967982, 45.43411773
12.32967042, 45.43428050
12.33897829, 45.43488164
12.33246180, 45.43523300
12.33547776, 45.43426833
12.33502813, 45.43413298
12.33542848, 45.43417365
12.33461414, 45.43292251
12.33346605, 45.43435695
12.33365162, 45.43452772
12.33343951, 45.43440268
12.33413064, 45.43340734
12.34859781, 45.43486587
12.34182801, 45.43590955
12.34209576, 45.43837625
12.34939623, 45.43423051
12.34934537, 45.43442810
12.35571195, 45.43123784
12.34115622, 45.43586661
12.34211068, 45.43568067
12.34895670, 45.43740670
12.35207778, 45.43241113
12.35191197, 45.43252480
12.33271934, 45.43586601
12.33286507, 45.43565558
12.33463558, 45.43495270
12.33467699, 45.43478418
12.33492738, 45.43503538
12.33487371, 45.43495859
12.33505502, 45.43498846
12.33516691, 45.43505535
12.33206870, 45.43220183
12.33385449, 45.43517097
12.33491638, 45.43318763
12.33196518, 45.43541866
12.33067988, 45.43439125
12.33028694, 45.43476389
12.33589154, 45.43387165
12.33582469, 45.43461701
12.33744329, 45.43597942
12.33584193, 45.43453961
12.33130885, 45.43306602
12.33430654, 45.43344332
12.33320531, 45.43280641
12.32914548, 45.43327273
12.33469560, 45.43514633
12.32908180, 45.43289106
12.33202296, 45.43277493
12.33226439, 45.43272335
12.34946568, 45.43378472
12.34976823, 45.43375375
12.34287533, 45.43601446
12.34944027, 45.43367926
12.35594974, 45.43282048
12.35369142, 45.43305640
12.35218536, 45.43297469
12.34638180, 45.43830530
12.33263263, 45.43396748
12.33517373, 45.43438643
12.33515679, 45.43444559
12.33102403, 45.43218398
12.33088409, 45.43218377
12.33795792, 45.43463822
12.33778653, 45.43453913
12.33468282, 45.43630482
12.33780545, 45.43438446
12.33784260, 45.43433149
12.33112838, 45.43210451
12.33651185, 45.43719323
12.33298701, 45.43295296
12.33032067, 45.43243855
12.33033548, 45.43193107
12.33563375, 45.43409624
12.33588197, 45.43414273
12.33490938, 45.43392374
12.33528302, 45.43403434
12.33088184, 45.43452229
12.33634018, 45.43436457
12.33619262, 45.43432709
12.33096716, 45.43195219
12.33747894, 45.43755569
12.33750977, 45.43754764
12.33864860, 45.43543883
12.33851707, 45.43554326
12.33502187, 45.44379446
12.33448477, 45.44417619
12.33502073, 45.44363324
12.33467589, 45.44390451
12.33952232, 45.44210485
12.33909892, 45.44218623
12.33588813, 45.44208050
12.35743788, 45.43421709
12.35773902, 45.43418990
12.34610482, 45.43482866
12.34763949, 45.43744207
12.34251677, 45.43797783
12.34256652, 45.43809660
12.35695078, 45.43176656
12.34842892, 45.43494778
12.33243855, 45.43225919
12.33249316, 45.43250863
12.33597024, 45.43620602
12.33590209, 45.43622969
12.33240214, 45.43265667
12.33257282, 45.43257819
12.33340258, 45.43375365
12.33304743, 45.43319574
12.33818301, 45.43543352
12.33671120, 45.43353487
12.33326356, 45.43225686
12.33671282, 45.43353276
12.33635275, 45.43733239
12.33939825, 45.43543700
12.33954118, 45.43554319
12.33613779, 45.43554984
12.33563984, 45.43518158
12.33109890, 45.43239422
12.33654374, 45.43274560
12.33658581, 45.43262375
12.33584101, 45.44217982
12.33571678, 45.44218558
12.32877898, 45.44588305
12.32879264, 45.44610712
12.32857808, 45.44559736
12.32848958, 45.44557778
12.32380764, 45.44625328
12.32243057, 45.44377481
12.32929766, 45.44393611
12.34157584, 45.43809217
12.33885058, 45.43756171
12.35059142, 45.43203966
12.34884759, 45.43539133
12.34859034, 45.43514510
12.34876339, 45.43541617
12.33983440, 45.43723277
12.34029484, 45.43663350
12.34874038, 45.43518287
12.33961067, 45.43710623
12.33357715, 45.43410009
12.33773625, 45.43515776
12.33655974, 45.43789605
12.33663585, 45.43804920
12.33761527, 45.43521529
12.33144193, 45.43246478
12.33927768, 45.43565364
12.33496415, 45.43613518
12.33940125, 45.43572803
12.34725793, 45.43754281
12.34645575, 45.43849285
12.34753202, 45.43816000
12.35398211, 45.43282908
12.34730531, 45.43778741
12.35652925, 45.43259543
12.35652034, 45.43254842
12.34569548, 45.43640656
12.34581404, 45.43690460
12.35316554, 45.43119499
12.35358461, 45.43269860
12.35357574, 45.43294136
12.35371620, 45.43266452
12.34789838, 45.43577063
12.34579465, 45.43614978
12.34190160, 45.43793074
12.35380396, 45.43286812
12.35375330, 45.43300923
12.34527000, 45.43589186
12.35325572, 45.43186245
12.34554563, 45.43596857
12.34752571, 45.43478141
12.34198701, 45.43460920
12.34187256, 45.43458049
12.34160491, 45.43842748
12.34045563, 45.43822228
12.34002666, 45.43702794
12.34026048, 45.43703242
12.34038819, 45.43719877
12.34025872, 45.43706845
12.34753264, 45.43733724
12.34771001, 45.43731381
12.34818994, 45.43402111
12.34853175, 45.43399134
12.35620117, 45.43395636
12.34605492, 45.43637098
12.34156447, 45.43919276
12.34330251, 45.43803700
12.34316337, 45.43821664
12.34359103, 45.43773097
12.34131455, 45.43566555
12.34778412, 45.43505728
12.34763576, 45.43481560
12.34245085, 45.43594471
12.34228571, 45.43578320
12.35675587, 45.43184519
12.34265099, 45.43587375
12.35697661, 45.43240507
12.34259977, 45.43578363
12.35692482, 45.43219011
12.35694597, 45.43185739
12.35699443, 45.43152043
12.33969654, 45.43863864
12.35777551, 45.43117291
12.34774753, 45.43642174
12.34442368, 45.43815192
12.34416440, 45.43834701
12.34410203, 45.43805202
12.34424269, 45.43821123
12.34855342, 45.43593128
12.33953653, 45.43663884
12.33910871, 45.43787455
12.33900211, 45.43785478
12.33906371, 45.43753137
12.35628505, 45.43135994
12.35620459, 45.43183340
12.35606984, 45.43199109
12.35689515, 45.43028883
12.35737072, 45.43082300
12.35686564, 45.43063063
12.33831945, 45.43762452
12.34339444, 45.43711101
12.34904435, 45.43741101
12.35745831, 45.43295579
12.34756727, 45.43444910
12.34725208, 45.43462664
12.34931061, 45.43869452
12.35604575, 45.43071470
12.34870809, 45.43795589
12.34021686, 45.43727454
12.35239278, 45.43198874
12.33699384, 45.44100493
12.34257856, 45.43448966
12.35944239, 45.43313528
12.35298709, 45.43272641
12.34643251, 45.43700305
12.34263328, 45.43468836
12.34260183, 45.43491313
12.34162240, 45.43627728
12.35589298, 45.43257689
12.34267951, 45.43690477
12.34873251, 45.43545855
12.34523071, 45.43679783
12.34346330, 45.43725862
12.34486390, 45.43717480
12.34425703, 45.43655964
12.34436214, 45.43703018
12.34889340, 45.43481385
12.34842680, 45.43560172
12.35130628, 45.43241257
12.34361791, 45.43587011
12.34366214, 45.43571964
12.34835116, 45.43416037
12.34833897, 45.43405474
12.34923048, 45.43686698
12.34952032, 45.43668572
12.34631429, 45.43417875
12.33998102, 45.43794340
12.33993746, 45.43765191
12.34799834, 45.43667816
12.34854586, 45.43614543
12.35750892, 45.43351677
12.34797720, 45.43691377
12.36108961, 45.43331685
12.33869123, 45.43701564
12.34934768, 45.43820147
12.34954389, 45.43823068
12.34198892, 45.43760200
12.34180047, 45.43750638
12.34190464, 45.43758232
12.35902087, 45.43451707
12.34282089, 45.43539653
12.34212729, 45.43499065
12.34336984, 45.43611573
12.34286775, 45.43679833
12.34322893, 45.43619513
12.35626607, 45.43373483
12.34804264, 45.43450562
12.34824798, 45.43430793
12.34869649, 45.43443288
12.33813449, 45.43729541
12.33835241, 45.43737152
12.33776457, 45.43701137
12.33810987, 45.43707598
12.33800462, 45.43686973
12.34899966, 45.43880274
12.34360933, 45.43563288
12.33269332, 45.43973006
12.33622815, 45.44191529
12.34271957, 45.43832404
12.35494455, 45.43290525
12.35825913, 45.43020608
12.35948734, 45.43025580
12.35793268, 45.42988073
12.35733259, 45.42989144
12.35742002, 45.42965508
12.34290962, 45.43432500
12.34309568, 45.43469129
12.34287022, 45.43406539
12.35778656, 45.43246221
12.35783117, 45.43288054
12.35814448, 45.43300264
12.35715547, 45.43256217
12.35762165, 45.43264022
12.35752983, 45.43243484
12.34603222, 45.43559051
12.34143862, 45.43447745
12.34150050, 45.43428879
12.34158681, 45.43427964
12.35608052, 45.43165559
12.35588910, 45.43242150
12.34177446, 45.43847006
12.35695392, 45.43415321
12.35692280, 45.43398213
12.34124037, 45.43544109
12.35567699, 45.43256862
12.33912265, 45.43821954
12.34713704, 45.43553174
12.34626582, 45.43761151
12.34628534, 45.43785443
12.35100592, 45.43233477
12.35106931, 45.43213469
12.35691743, 45.43302554
12.35676748, 45.43322274
12.35831634, 45.42995132
12.34582472, 45.43460430
12.34579500, 45.43464505
12.34259606, 45.43664683
12.33966422, 45.43736531
12.34232866, 45.43658723
12.33995074, 45.43758630
12.34226515, 45.43655315
12.34302256, 45.43852134
12.34296973, 45.43856024
12.33922786, 45.43684768
12.33949865, 45.43681461
12.35817891, 45.43006669
12.33950670, 45.43691252
12.33947483, 45.43691667
12.36338077, 45.42669139
12.34082355, 45.43498341
12.34069117, 45.43486508
12.33987847, 45.43607594
12.33996489, 45.43593717
12.35531364, 45.43215761
12.34926797, 45.43622464
12.35526785, 45.43220823
12.34918645, 45.43609678
12.34909818, 45.43618083
12.34895483, 45.43643868
12.34684920, 45.43821031
12.34733747, 45.43550555
12.34772938, 45.43559096
12.34723307, 45.43535912
12.34257876, 45.43648297
12.35701708, 45.43295739
12.33796794, 45.43828262
12.33818828, 45.43826379
12.34905100, 45.43370010
12.34952344, 45.43312123
12.35233258, 45.43258279
12.34823305, 45.43589469
12.34731938, 45.43420916
12.34499076, 45.43869990
12.35678954, 45.43301731
12.34673733, 45.43548319
12.35778698, 45.42846101
12.33961625, 45.43618765
12.35206222, 45.43175735
12.34963130, 45.43422730
12.34890347, 45.43516206
12.34886896, 45.43489284
12.34092786, 45.43504384
12.34578361, 45.43822575
12.34607936, 45.43798942
12.34526664, 45.43848233
12.34179974, 45.43769119
12.34939649, 45.43464030
12.34985334, 45.43460476
12.35008735, 45.43378978
12.35013838, 45.43460579
12.34960446, 45.43405431
12.34990311, 45.43418457
12.34845553, 45.43705586
12.35923274, 45.43261075
12.34540523, 45.43609575
12.34508852, 45.43584375
12.34528794, 45.43596655
12.35517746, 45.43279896
12.35511896, 45.43280098
12.35520220, 45.43259651
12.34024815, 45.43631572
12.34016125, 45.43626629
12.35599769, 45.43147860
12.33898139, 45.43724561
12.34747731, 45.43390788
12.34770513, 45.43418198
12.34883976, 45.43614090
12.34783700, 45.43477642
12.34133115, 45.43763601
12.34125683, 45.43775901
12.34230304, 45.43546262
12.34101843, 45.43569817
12.34672337, 45.43825801
12.34604255, 45.43467997
12.34511824, 45.43433898
12.34672049, 45.43798111
12.34008091, 45.43669544
12.34058450, 45.43686308
12.34663481, 45.43463670
12.35570734, 45.43280481
12.34884780, 45.43563418
12.35650727, 45.43312822
12.35667909, 45.43315553
12.35759731, 45.43305762
12.34528149, 45.43480577
12.34542671, 45.43490941
12.34705026, 45.43723239
12.34699057, 45.43714707
12.34715970, 45.43715686
12.35586348, 45.43164681
12.35592935, 45.43133105
12.34660744, 45.43617039
12.34600871, 45.43595725
12.34732033, 45.43605889
12.35495464, 45.43148124
12.34562578, 45.43472780
12.34439121, 45.43403182
12.34458196, 45.43476383
12.34555166, 45.43474871
12.33931424, 45.43802339
12.34888200, 45.43432025
12.34858018, 45.43736234
12.34692054, 45.43408877
12.32358374, 45.43837176
12.35297274, 45.43180058
12.34066615, 45.43792028
12.34053056, 45.43797636
12.34790192, 45.43752849
12.34785682, 45.43739047
12.34507425, 45.43497351
12.34524598, 45.43519574
12.34548143, 45.43516352
12.34567430, 45.43510211
12.33885960, 45.43853358
12.34212100, 45.43811965
12.34172814, 45.43871513
12.34155085, 45.43883542
12.34159164, 45.43893737
12.34738649, 45.43636747
12.34743279, 45.43629216
12.33807545, 45.43784671
12.35519328, 45.43031272
12.34214639, 45.43645177
12.34916267, 45.43562776
12.33844077, 45.43814805
12.33839824, 45.43804691
12.35169649, 45.43236799
12.35175528, 45.43227139
12.35958911, 45.43282064
12.35996372, 45.43289009
12.34514441, 45.43814111
12.34806279, 45.43606374
12.34797762, 45.43613525
12.36212589, 45.42936271
12.34205213, 45.43619979
12.34008826, 45.43756643
12.35743391, 45.43108806
12.34113650, 45.43883901
12.34238212, 45.43553103
12.34237773, 45.43552366
12.34333559, 45.43849426
12.34383102, 45.43838935
12.34805988, 45.43348713
12.34870151, 45.43308394
12.35355708, 45.43205148
12.35348392, 45.43213728
12.35354511, 45.43224047
12.35365328, 45.43215599
12.34941934, 45.43600017
12.34602022, 45.43768830
12.34607300, 45.43764706
12.34833188, 45.43536858
12.34801422, 45.43526047
12.34846604, 45.43424979
12.34506900, 45.43538335
12.34444519, 45.43570021
12.34431363, 45.43577075
12.34530405, 45.43550443
12.34525780, 45.43538106
12.35153231, 45.43244468
12.34848443, 45.43553768
12.35331334, 45.43277875
12.34718326, 45.43477214
12.34382212, 45.43602833
12.33870588, 45.43720527
12.34849589, 45.43552488
12.34748556, 45.43519472
12.34390893, 45.43619344
12.34036138, 45.43734806
12.34414593, 45.43628234
12.34718184, 45.43480041
12.34423483, 45.43607036
12.34950644, 45.43472987
12.34900912, 45.43719806
12.34860045, 45.43711618
12.34881505, 45.43702670
12.34773035, 45.43399180
12.35873572, 45.43161261
12.35648539, 45.43353508
12.34848402, 45.43718641
12.35885493, 45.43396423
12.34042580, 45.43746973
12.35729771, 45.43294943
12.35715868, 45.43302693
12.35722428, 45.43319136
12.35147111, 45.43265411
12.34196999, 45.43684945
12.34805457, 45.43466147
12.33944219, 45.43643430
12.34955492, 45.43421031
12.34951259, 45.43443636
12.33825331, 45.43716864
12.33944224, 45.43814799
12.35346303, 45.43182115
12.33839963, 45.43673880
12.33819879, 45.43676205
12.33856387, 45.43671972
12.34406603, 45.43627479
12.34951816, 45.43485039
12.34489082, 45.43497589
12.34117934, 45.43622945
12.34086938, 45.43661479
12.34091379, 45.43651160
12.34139195, 45.43629602
12.34140508, 45.43620724
12.35903696, 45.43296325
12.36059412, 45.43336611
12.33208840, 45.44043633
12.35745612, 45.43284577
12.34653454, 45.43830756
12.34390686, 45.43740382
12.34408657, 45.43791502
12.34395512, 45.43754194
12.34397226, 45.43769338
12.34542697, 45.43937312
12.34299010, 45.43554899
12.33835966, 45.43788730
12.34245921, 45.43857259
12.35880555, 45.43076999
12.34506269, 45.43621037
12.34438645, 45.43618633
12.34522629, 45.43631070
12.35548926, 45.43280169
12.34191301, 45.43568718
12.34193850, 45.43574628
12.34476140, 45.43577548
12.34187573, 45.43868918
12.33132040, 45.43856790
12.34557417, 45.43579608
12.35897064, 45.43326129
12.36108194, 45.43348571
12.35856741, 45.43281295
12.34181325, 45.43440346
12.35672742, 45.43359447
12.35696818, 45.43326555
12.35666065, 45.43349773
12.35652588, 45.43366427
12.34947981, 45.43894853
12.35842187, 45.43103730
12.36034166, 45.43283323
12.34002073, 45.43634678
12.34214662, 45.43606432
12.35715274, 45.43187590
12.34288049, 45.43916083
12.35331308, 45.43218287
12.34564630, 45.43877823
12.35329805, 45.43207824
12.35709369, 45.43099141
12.34555980, 45.43570713
12.34186165, 45.43623237
12.34903884, 45.43652758
12.34828080, 45.43675071
12.34097127, 45.43526602
12.33879642, 45.43681583
12.33857865, 45.43819554
12.34987303, 45.43296700
12.34976249, 45.43392875
12.34282380, 45.43569841
12.34278290, 45.43579824
12.34127073, 45.43488399
12.34844344, 45.43582196
12.34289479, 45.43584988
12.34056524, 45.43584157
12.35708523, 45.43348733
12.34159684, 45.43699349
12.34148561, 45.43605791
12.34192515, 45.43659124
12.34208698, 45.43868106
12.34210321, 45.43542437
12.34258953, 45.43780192
12.34253303, 45.43786570
12.34990575, 45.43802449
12.34949664, 45.43774592
12.34982972, 45.43841163
12.35023921, 45.43804420
12.34890533, 45.43711130
12.34973452, 45.43676747
12.35640029, 45.43080591
12.33900802, 45.43860490
12.33893442, 45.43712417
12.34814353, 45.43599999
12.35759805, 45.43363153
12.35557945, 45.43193032
12.35553852, 45.43222910
12.33915565, 45.43796604
12.34488775, 45.43609542
12.35814863, 45.43127332
12.34133419, 45.43528328
12.34136976, 45.43520999
12.34713004, 45.43691150
12.34192551, 45.43554665
12.34931626, 45.43854609
12.34898835, 45.43831424
12.34920235, 45.43851490
12.35731418, 45.43330393
12.35764924, 45.43341220
12.34744057, 45.43788681
12.34814186, 45.43788709
12.34158477, 45.43576134
12.34174505, 45.43571111
12.35737032, 45.43070922
12.34895919, 45.43800541
12.34128945, 45.43804736
12.35654021, 45.43336734
12.35343142, 45.43152498
12.35362875, 45.43147665
12.35324296, 45.43127169
12.35343076, 45.43120056
12.34193856, 45.44073671
12.34260834, 45.44189178
12.34170614, 45.44039026
12.34230621, 45.43601344
12.33781634, 45.43681473
12.33370008, 45.42961948
12.33676443, 45.43985124
12.34571965, 45.43547409
12.34573485, 45.43556218
12.35061462, 45.43282536
12.34942704, 45.43266915
12.35712033, 45.43495345
12.35724390, 45.43491505
12.35457302, 45.43133090
12.35436752, 45.43176371
12.35445518, 45.43104161
12.35443184, 45.43179477
12.33255667, 45.43697568
12.33471140, 45.43906314
12.33506244, 45.43913962
12.33303958, 45.43951641
12.33354331, 45.43939848
12.33324981, 45.43939914
12.33157456, 45.43791225
12.32970733, 45.43842932
12.33174446, 45.43781263
12.32949547, 45.43869971
12.32942512, 45.43865392
12.33175813, 45.43770593
12.33113107, 45.43811406
12.33804556, 45.42451414
12.33758223, 45.42459496
12.33782369, 45.42467497
12.32529484, 45.42552858
12.32482309, 45.42559766
12.32242125, 45.43090323
12.32254142, 45.43125270
12.33233950, 45.42885032
12.33230310, 45.42887916
12.31651660, 45.43361971
12.32372746, 45.43340489
12.32412985, 45.42640641
12.32438988, 45.42680062
12.33959554, 45.42696301
12.33951397, 45.42715224
12.33129160, 45.42906621
12.32704390, 45.43075687
12.32628393, 45.43039136
12.33056500, 45.42958613
12.31877818, 45.43191236
12.32410414, 45.43096141
12.32559700, 45.42615296
12.32579614, 45.42648139
12.32868176, 45.42967207
12.32826135, 45.42475699
12.32327071, 45.42658435
12.32495435, 45.42675651
12.32341523, 45.42711348
12.32360389, 45.43427740
12.33121552, 45.43802293
12.33392905, 45.43914899
12.33111914, 45.43875031
12.33100656, 45.43881980
12.33192679, 45.43912392
12.33212696, 45.43732669
12.33212881, 45.43698121
12.32927015, 45.43706666
12.32932700, 45.43702621
12.32647593, 45.43864875
12.32230676, 45.43428978
12.32376021, 45.43324022
12.33342425, 45.42427832
12.33340378, 45.42516315
12.33638636, 45.42407481
12.32249990, 45.43375924
12.31908087, 45.43176239
12.33146722, 45.42978127
12.32387394, 45.42595516
12.32155775, 45.43575352
12.32068282, 45.43641079
12.32483079, 45.43125517
12.32339812, 45.43115135
12.32416021, 45.43542386
12.31646215, 45.43418199
12.31437918, 45.43344706
12.33225970, 45.42917093
12.33254644, 45.42917170
12.32600824, 45.43064967
12.32655399, 45.43099864
12.33246754, 45.42537068
12.33970898, 45.42532427
12.32505213, 45.43451431
12.32554407, 45.43530464
12.32878554, 45.43911288
12.33545043, 45.43813789
12.33247253, 45.43811174
12.33260559, 45.43994077
12.32729012, 45.43571039
12.33343626, 45.43872291
12.32399194, 45.43821847
12.32386762, 45.43832204
12.33203790, 45.43803995
12.33634747, 45.42571000
12.33367274, 45.42538552
12.33346535, 45.42504627
12.33579417, 45.42565642
12.33480695, 45.42513977
12.32648046, 45.43274787
12.32312624, 45.43115085
12.32377782, 45.43225675
12.31733953, 45.43389961
12.32577660, 45.42523010
12.33110373, 45.42386497
12.32160078, 45.43135444
12.32193023, 45.43138427
12.32177982, 45.43617252
12.32155125, 45.43576016
12.32649324, 45.42414942
12.32543950, 45.43030654
12.33202621, 45.42855271
12.32238255, 45.43362388
12.32707587, 45.42365499
12.33189973, 45.43871394
12.33174628, 45.43875194
12.33477091, 45.43943821
12.32743414, 45.43748024
12.32465870, 45.43688387
12.32486007, 45.43654758
12.32484901, 45.43679185
12.33108015, 45.43753403
12.33071014, 45.43764357
12.32861966, 45.43601295
12.32841299, 45.43590029
12.32579546, 45.43572541
12.32856618, 45.42936596
12.32246962, 45.43218015
12.32424633, 45.42449726
12.32578562, 45.43558684
12.33115274, 45.42407140
12.32837283, 45.42530455
12.32498797, 45.43212606
12.32746213, 45.42477028
12.32670335, 45.42494099
12.32738597, 45.42471434
12.32521161, 45.43528979
12.32511313, 45.43532419
12.32179480, 45.43581786
12.32254031, 45.43325636
12.32258460, 45.43295218
12.32530201, 45.43354946
12.32530045, 45.43355674
12.32688635, 45.42362670
12.32687360, 45.42397996
12.32715709, 45.42390698
12.32522435, 45.42462935
12.32545933, 45.42411774
12.32583494, 45.42457013
12.32842479, 45.43608435
12.32714032, 45.43778459
12.32387549, 45.43766448
12.32421537, 45.43712239
12.32445259, 45.43715696
12.32349402, 45.43755685
12.32719063, 45.43849741
12.32997473, 45.43661957
12.33192962, 45.43788856
12.32221843, 45.44631044
12.32451767, 45.43156378
12.32463654, 45.43205858
12.32504574, 45.43213107
12.32531095, 45.43374980
12.32719323, 45.42570990
12.32702879, 45.42566777
12.32685067, 45.42520493
12.32710097, 45.42592382
12.32558599, 45.42984393
12.32489691, 45.43179315
12.33378075, 45.42526958
12.33816638, 45.42432499
12.33130641, 45.42447278
12.32683135, 45.42630343
12.31736377, 45.43256351
12.32785508, 45.43070390
12.32704863, 45.43103585
12.32442939, 45.42646713
12.32460444, 45.42676201
12.32551957, 45.43287662
12.32421661, 45.43107983
12.32868145, 45.43051400
12.32068807, 45.43345534
12.32009931, 45.43331186
12.32409900, 45.43362021
12.33195415, 45.42875489
12.31895066, 45.43489831
12.32714103, 45.43645552
12.32922132, 45.43795233
12.32877189, 45.43628375
12.33237860, 45.43944630
12.32942906, 45.43888972
12.32674476, 45.43604609
12.33300909, 45.43815889
12.33324702, 45.43835628
12.33303716, 45.43828178
12.32740797, 45.43552858
12.32818747, 45.43696673
12.33401606, 45.43834536
12.31735563, 45.43416714
12.32441130, 45.43486510
12.32427107, 45.43480252
12.32375714, 45.43521847
12.32371915, 45.43518364
12.32943092, 45.43069597
12.33086445, 45.43000952
12.32493390, 45.43172894
12.32339882, 45.43466275
12.32356460, 45.43370929
12.32792144, 45.42540928
12.32579054, 45.42620355
12.32847622, 45.43051890
12.32885115, 45.42495016
12.32842485, 45.42417924
12.32780357, 45.42611207
12.31429607, 45.43358472
12.31405711, 45.43353788
12.32601600, 45.43433024
12.32487165, 45.43624748
12.32507766, 45.43628964
12.32133353, 45.43093678
12.31647336, 45.43252129
12.32261349, 45.43269757
12.32524922, 45.43427595
12.32539060, 45.43423527
12.32208707, 45.42468420
12.32975112, 45.42952704
12.32553673, 45.43228445
12.31993092, 45.43238697
12.33441896, 45.42980401
12.33739814, 45.42438794
12.31979939, 45.43226410
12.32797977, 45.43827890
12.32751384, 45.43808298
12.33247665, 45.43951863
12.33311942, 45.43846867
12.33035995, 45.43674464
12.31655986, 45.43385572
12.33397564, 45.44483625
12.32566151, 45.42585000
12.32307607, 45.43473397
12.32567395, 45.42546790
12.33096301, 45.43026997
12.32587652, 45.43452734
12.32602387, 45.43521262
12.32591059, 45.43478396
12.32195222, 45.43406923
12.32168786, 45.43388894
12.32476467, 45.43609594
12.31950034, 45.42682566
12.32683171, 45.43146851
12.31965188, 45.42676084
12.31851448, 45.43480916
12.31884082, 45.43515516
12.32433591, 45.43317996
12.32317472, 45.43216807
12.32311253, 45.43215087
12.33308660, 45.42938400
12.33289357, 45.42951389
12.32367711, 45.43235201
12.32534171, 45.43235748
12.32367127, 45.43315015
12.32536503, 45.43223409
12.32160089, 45.43179712
12.32342762, 45.43228434
12.33752078, 45.42479509
12.32352444, 45.43251804
12.31766135, 45.43431480
12.31761362, 45.43332715
12.32211149, 45.43626365
12.32230556, 45.43628875
12.32242622, 45.43626690
12.32450089, 45.43265310
12.33545732, 45.43892324
12.33562230, 45.43888828
12.33506372, 45.43943403
12.33376663, 45.43846399
12.33357407, 45.43834915
12.32417817, 45.43793072
12.33368565, 45.43785500
12.33223162, 45.43928330
12.32944043, 45.43910333
12.32671777, 45.43572933
12.32681082, 45.43840209
12.32949223, 45.43900907
12.32926161, 45.43919060
12.33005460, 45.43018121
12.32627787, 45.42986669
12.32408816, 45.43132648
12.31930480, 45.43179226
12.33260909, 45.42508770
12.33152616, 45.42387400
12.32660409, 45.43552246
12.32683786, 45.43555191
12.32542509, 45.43346970
12.32232159, 45.43615336
12.33313099, 45.42953790
12.32108843, 45.43527817
12.32050180, 45.43506592
12.32087631, 45.43521782
12.32106772, 45.43539173
12.32595007, 45.43544321
12.32356069, 45.43503046
12.32316617, 45.43511829
12.32579118, 45.43338610
12.31714092, 45.43259402
12.31676023, 45.43278357
12.32402787, 45.43249567
12.32568564, 45.43474363
12.32413073, 45.43256201
12.31766943, 45.43401140
12.31541894, 45.43316904
12.31708373, 45.43329462
12.31549588, 45.43324177
12.34169978, 45.43543594
12.32499742, 45.42435525
12.31853770, 45.43196804
12.31855743, 45.43175300
12.32561059, 45.43397834
12.32759815, 45.42941857
12.32609818, 45.43574733
12.32618905, 45.43587617
12.31973856, 45.43244445
12.32692803, 45.43187709
12.32035427, 45.43475484
12.32404260, 45.43147154
12.32477644, 45.43088886
12.32779910, 45.43160492
12.32761709, 45.43167363
12.31461436, 45.43363079
12.32354606, 45.43303168
12.32630326, 45.43422956
12.33728213, 45.42538961
12.33811237, 45.42512147
12.33398889, 45.43220967
12.33377793, 45.43226975
12.32056984, 45.43429761
12.32028459, 45.43262530
12.32006030, 45.43482591
12.32225710, 45.42545829
12.32198247, 45.42506613
12.32254244, 45.42522602
12.32892644, 45.43094565
12.33112934, 45.42996061
12.32651916, 45.43125792
12.32597296, 45.43205753
12.32607078, 45.43182597
12.32537457, 45.43218149
12.32591273, 45.43223061
12.32582246, 45.43208976
12.32589958, 45.43188516
12.32597867, 45.43182598
12.32615335, 45.43307766
12.32406666, 45.43531295
12.32481542, 45.43064750
12.32464745, 45.43164623
12.32427837, 45.43082821
12.32473686, 45.43298103
12.32934510, 45.42980416
12.31986457, 45.43324408
12.32454043, 45.42489751
12.32481170, 45.42484446
12.32522608, 45.42505920
12.32282065, 45.43345200
12.32279418, 45.43359873
12.31881045, 45.43451266
12.31987504, 45.43337387
12.33025692, 45.42933447
12.32969951, 45.42868030
12.33040572, 45.42937463
12.33011021, 45.42901576
12.33437512, 45.43024609
12.32510147, 45.43269331
12.34001969, 45.44174417
12.33258737, 45.44025532
12.33214240, 45.42901531
12.33209081, 45.42902491
12.33213918, 45.42889065
12.32421281, 45.43043513
12.32435117, 45.43071532
12.32783245, 45.42936350
12.31635010, 45.43282294
12.31621703, 45.43289984
12.32443681, 45.43257227
12.32453880, 45.43239098
12.33479902, 45.42949338
12.32316569, 45.43451667
12.32329163, 45.43447573
12.32094496, 45.43375663
12.32398569, 45.43344533
12.33278449, 45.42962491
12.33288758, 45.42857181
12.32535721, 45.43610898
12.32750743, 45.43100452
12.32867656, 45.42902023
12.32875285, 45.42891661
12.32669715, 45.44055964
12.33443669, 45.43315204
12.33069033, 45.42924832
12.32996027, 45.42873739
12.33057045, 45.42942385
12.33032702, 45.42949996
12.33001914, 45.42902486
12.33078064, 45.42939442
12.33018306, 45.42921083
12.32376908, 45.43248764
12.33314743, 45.43044365
12.31821784, 45.43221109
12.31742166, 45.43346324
12.31887182, 45.42701326
12.32333383, 45.43259450
12.32497266, 45.43306057
12.32522002, 45.43328784
12.32504572, 45.43284459
12.32079754, 45.43118924
12.32066063, 45.43166229
12.32056846, 45.43133341
12.33605492, 45.44112903
12.32354724, 45.43322829
12.32209149, 45.42583767
12.32193311, 45.42578913
12.32938043, 45.43013802
12.32895984, 45.43031404
12.32884786, 45.43072070
12.33122161, 45.43040654
12.32687812, 45.43531426
12.32092131, 45.43093798
12.32270773, 45.43394105
12.32276778, 45.43385243
12.33962006, 45.42510466
12.33931648, 45.42520639
12.32288820, 45.43100532
12.32293288, 45.43117409
12.32222649, 45.42503510
12.33177701, 45.42441665
12.31971120, 45.43507134
12.31641767, 45.43233014
12.32486883, 45.43244074
12.32513882, 45.43254986
12.31806100, 45.43217467
12.32559870, 45.42968265
12.32899020, 45.42584752
12.32292441, 45.42592334
12.32744093, 45.42430949
12.32191079, 45.44400534
12.33478003, 45.44266308
12.33009694, 45.44388450
12.32152365, 45.42760660
12.32048428, 45.42822172
12.32413803, 45.42573273
12.32412503, 45.42601786
12.32323086, 45.42586295
12.33184902, 45.43053814
12.32473712, 45.43416671
12.32198759, 45.43257703
12.31478298, 45.43372306
12.31869963, 45.43493668
12.33298526, 45.42970799
12.32150343, 45.43244100
12.32145569, 45.43265108
12.32928499, 45.42878553
12.32701792, 45.42934076
12.31675823, 45.43212747
12.32446572, 45.43413116
12.32429307, 45.43406040
12.32439108, 45.43430473
12.32981978, 45.42976716
12.32199548, 45.43377775
12.32281119, 45.43417943
12.31963792, 45.43259194
12.31984214, 45.43270026
12.31702155, 45.43464073
12.32540462, 45.43404318
12.32505626, 45.43396309
12.31750234, 45.43463868
12.31731699, 45.43469426
12.32480478, 45.43398206
12.32542502, 45.43012590
12.32438287, 45.43449313
12.32563596, 45.42999862
12.32091105, 45.43692966
12.32041411, 45.43703792
12.33213479, 45.43056291
12.33193485, 45.43047818
12.32948528, 45.42926206
12.33121790, 45.42543738
12.33120570, 45.42557494
12.33071771, 45.42443060
12.33064699, 45.42430255
12.33010357, 45.43031525
12.33567343, 45.43017714
12.32344764, 45.43023603
12.33209302, 45.42865989
12.33885873, 45.42699139
12.32296729, 45.43408314
12.32846191, 45.42954584
12.32615148, 45.43187373
12.32583459, 45.43237901
12.31896505, 45.43468172
12.35653377, 45.43290117
12.31711505, 45.43314656
12.31744892, 45.43302870
12.31730450, 45.43290706
12.31666814, 45.43257875
12.31672241, 45.43249341
12.32296711, 45.43597200
12.32257840, 45.43626697
12.32675380, 45.43200354
12.32556222, 45.43259392
12.32555313, 45.43270706
12.32685082, 45.43166833
12.32649463, 45.43526884
12.33326168, 45.43070566
12.33354631, 45.43068327
12.31706147, 45.43294531
12.31707085, 45.43271966
12.32019291, 45.43522415
12.32040171, 45.43529863
12.32499190, 45.43563109
12.32447919, 45.43547316
12.32221096, 45.43208854
12.32209346, 45.43221388
12.33130179, 45.43700282
12.33135333, 45.42878788
12.32208077, 45.43234434
12.32824136, 45.43761260
12.32592343, 45.43631100
12.33118685, 45.43853789
12.33095617, 45.43834671
12.33095161, 45.43857274
12.32855279, 45.43755902
12.32850302, 45.43744496
12.32080440, 45.43663453
12.32051133, 45.43628663
12.32856208, 45.42982460
12.33053066, 45.43052796
12.32110113, 45.43137017
12.33185939, 45.42856443
12.31926799, 45.43251695
12.32482132, 45.43276013
12.32486573, 45.43265234
12.32648601, 45.43502094
12.33700879, 45.42531114
12.32198442, 45.43104969
12.32187151, 45.43102899
12.32196833, 45.43095924
12.33067868, 45.42998895
12.33078503, 45.43026811
12.32193232, 45.42496785
12.32921174, 45.42976974
12.33275652, 45.42917566
12.32861875, 45.43441644
12.33968434, 45.44119720
12.31955366, 45.43212157
12.32017819, 45.43209442
12.32985056, 45.43062604
12.33690989, 45.43392852
12.32881388, 45.43086129
12.32803203, 45.42957821
12.34768691, 45.43713806
12.32811561, 45.43647351
12.33338525, 45.43904334
12.32451675, 45.43785207
12.33378028, 45.43858518
12.33372032, 45.43872518
12.32881663, 45.43872039
12.32744967, 45.43651188
12.32737628, 45.43658723
12.32805180, 45.43875193
12.32822957, 45.43864783
12.33523328, 45.43881264
12.33158247, 45.43816664
12.33257147, 45.43710022
12.32620699, 45.43271615
12.32620369, 45.43272843
12.32182667, 45.43488262
12.32730115, 45.43177170
12.32171781, 45.42503407
12.32642045, 45.42468580
12.32414551, 45.43344142
12.32420400, 45.43353173
12.33203507, 45.42975924
12.32050165, 45.43084492
12.33205965, 45.42918029
12.31408450, 45.42651593
12.32307600, 45.43286148
12.34191448, 45.44183720
12.34052875, 45.44250970
12.31575610, 45.42761808
12.32330318, 45.44648969
12.32675521, 45.44639498
12.32687857, 45.44680312
12.33727732, 45.43906789
12.33770569, 45.44105062
12.33779621, 45.44118302
12.33764577, 45.44118008
12.33976154, 45.43909368
12.33947562, 45.44106757
12.33481067, 45.44147394
12.33303276, 45.44544648
12.32142705, 45.44481735
12.32156387, 45.44506637
12.32792067, 45.44331958
12.33069322, 45.44330215
12.33525920, 45.44122493
12.32868964, 45.44344676
12.32884864, 45.44372133
12.32820857, 45.44324266
12.32864279, 45.44356203
12.33069108, 45.44323400
12.34018018, 45.44206999
12.33234993, 45.44206628
12.33363826, 45.44216117
12.33866372, 45.43946421
12.33940542, 45.43966390
12.33913929, 45.43933462
12.33896503, 45.43933895
12.33872022, 45.43933744
12.32008274, 45.44760801
12.33429520, 45.44514886
12.32032877, 45.44774654
12.32266562, 45.44374582
12.32151207, 45.44337174
12.33768255, 45.44235172
12.33375454, 45.44249837
12.33522323, 45.44191460
12.33047480, 45.44318389
12.32999700, 45.44328659
12.32985184, 45.44299077
12.33244865, 45.44321683
12.33045539, 45.44339054
12.33056338, 45.44342727
12.33858361, 45.44229100
12.31875128, 45.44527176
12.33718367, 45.44034885
12.32443234, 45.44334869
12.33811766, 45.44346137
12.33810644, 45.44332978
12.33887393, 45.44021796
12.32372951, 45.44180016
12.33859331, 45.43991094
12.33221143, 45.44362950
12.33176182, 45.44361467
12.33207188, 45.44347773
12.33196352, 45.44347385
12.33988230, 45.44296574
12.33595194, 45.44065035
12.32188918, 45.44286572
12.33275229, 45.44409443
12.33443857, 45.44305108
12.33457129, 45.44294891
12.33684426, 45.43905355
12.33659314, 45.43908367
12.33833388, 45.44022059
12.33823654, 45.44037079
12.33390225, 45.44175091
12.33312093, 45.44179426
12.33398656, 45.44225032
12.33343081, 45.44155524
12.34051010, 45.44278280
12.32321259, 45.44544240
12.32319287, 45.44511666
12.33974390, 45.44164414
12.33969167, 45.44042066
12.33918001, 45.44012693
12.33950330, 45.44024863
12.33941372, 45.44024584
12.33950768, 45.44024295
12.33560525, 45.44068523
12.33295071, 45.44537975
12.32268176, 45.44441363
12.32634052, 45.44307059
12.34032514, 45.43894591
12.33518640, 45.44223579
12.33982948, 45.43898823
12.33527939, 45.44229680
12.33530844, 45.44241718
12.33541104, 45.44237710
12.33053248, 45.44311902
12.33052054, 45.44275249
12.33053902, 45.44298926
12.33649127, 45.43907435
12.33576633, 45.44335167
12.33415455, 45.44274244
12.33551578, 45.44300586
12.33949969, 45.44157271
12.33926983, 45.44159115
12.33899731, 45.44054856
12.33234661, 45.44582909
12.33209637, 45.44555324
12.32490182, 45.44302912
12.32017329, 45.44526051
12.32395857, 45.44524426
12.32414894, 45.44504289
12.32366896, 45.44484359
12.34001099, 45.44057288
12.33674894, 45.44268297
12.33235819, 45.44351513
12.33259485, 45.44368961
12.32762305, 45.44607427
12.32760126, 45.44363294
12.33294211, 45.44439326
12.32746780, 45.44483902
12.32706156, 45.44466764
12.33473500, 45.44169963
12.33498865, 45.44195822
12.32884102, 45.44568391
12.33251952, 45.44462820
12.33271484, 45.44477085
12.33246048, 45.44456586
12.33652261, 45.44000793
12.32772945, 45.44490852
12.32990156, 45.44340206
12.33930346, 45.44233176
12.33259313, 45.44185894
12.33931029, 45.44221591
12.32013662, 45.44679558
12.32033245, 45.44665137
12.31984872, 45.44644319
12.33217767, 45.44533300
12.33204237, 45.44529426
12.33232618, 45.44388430
12.33206988, 45.44398694
12.32155968, 45.44726542
12.33223464, 45.44405004
12.33743167, 45.43883258
12.33767160, 45.43862136
12.32763327, 45.44281805
12.33745804, 45.44071340
12.32907256, 45.44657430
12.33723245, 45.43931844
12.32489196, 45.44689734
12.32194660, 45.44675088
12.32384095, 45.44653623
12.32509084, 45.44742607
12.32609877, 45.44605560
12.33225722, 45.44213808
12.33236141, 45.44224240
12.33245077, 45.42937105
12.33356122, 45.43041629
12.33397887, 45.43066010
12.33424150, 45.43079726
12.32435374, 45.42544103
12.32374720, 45.42419794
12.33122227, 45.42427410
12.32479369, 45.43328265
12.34042856, 45.44156596
12.34029044, 45.44133104
12.33618104, 45.44254654
12.33225712, 45.44234220
12.33337645, 45.44229488
12.33194959, 45.44228787
12.32465772, 45.44261509
12.32485868, 45.44266448
12.32478136, 45.44242401
12.33348847, 45.44131599
12.33297227, 45.44523605
12.33090675, 45.44337669
12.32595489, 45.44750768
12.32296986, 45.44432633
12.32080031, 45.44311575
12.33300588, 45.44514024
12.33323268, 45.44497240
12.33342603, 45.44477170
12.33348180, 45.44516849
12.33243483, 45.44226348
12.33908257, 45.44056925
12.33917802, 45.44063371
12.32496818, 45.44665967
12.33933014, 45.44193058
12.34093673, 45.43982461
12.33424342, 45.44438445
12.33779442, 45.44255952
12.34144645, 45.44077617
12.32517988, 45.44688876
12.32678265, 45.44354918
12.32868224, 45.44266700
12.33271650, 45.44375944
12.33270484, 45.44396925
12.33281287, 45.44406996
12.32882307, 45.44733553
12.32876143, 45.44712003
12.32656746, 45.43254145
12.32501641, 45.43540838
12.31902824, 45.43220909
12.31867261, 45.43265551
12.31942929, 45.43324168
12.31684687, 45.43404492
12.32471771, 45.43444248
12.32499494, 45.43474982
12.32510831, 45.43489781
12.32520432, 45.44761455
12.32483764, 45.44758755
12.32081562, 45.44686729
12.33308163, 45.44283417
12.33267504, 45.44301590
12.32408777, 45.44214618
12.32511435, 45.44467369
12.33121100, 45.44270451
12.32967719, 45.44557111
12.33448814, 45.44180956
12.33556460, 45.44123717
12.33408871, 45.44144455
12.33570900, 45.44081250
12.33506170, 45.44092971
12.33155922, 45.44254103
12.32653234, 45.44394413
12.33149938, 45.44237534
12.33178192, 45.44228966
12.33613315, 45.44252308
12.33655070, 45.44237374
12.32652095, 45.44295900
12.33847679, 45.44119253
12.33752159, 45.44306902
12.33158736, 45.44330150
12.33860684, 45.44113716
12.32665919, 45.44331701
12.33649287, 45.44413085
12.33682998, 45.44310327
12.33693318, 45.44297986
12.32121766, 45.43220866
12.32185493, 45.43237019
12.32119961, 45.43190034
12.32163424, 45.43210601
12.32156172, 45.43210408
12.32179598, 45.43206720
12.32073753, 45.43184104
12.31795085, 45.43263260
12.33229429, 45.43063526
12.33223704, 45.43049077
12.33241133, 45.43071428
12.33831949, 45.44139975
12.33806400, 45.43944352
12.34062923, 45.43925695
12.33579370, 45.44118992
12.32986232, 45.44593516
12.33563065, 45.44115836
12.33864788, 45.44132731
12.33803970, 45.43947228
12.33782486, 45.44380353
12.32820887, 45.44496962
12.32811579, 45.44562083
12.32815699, 45.44551315
12.32625810, 45.44507152
12.32624957, 45.44490101
12.32629086, 45.44497596
12.32129599, 45.44482022
12.32117360, 45.44459904
12.33738557, 45.44202064
12.33201696, 45.44315261
12.33211315, 45.44333307
12.32100481, 45.44040969
12.32066843, 45.44442270
12.33883639, 45.43981189
12.33859659, 45.43968119
12.32237326, 45.43585982
12.32251152, 45.43582647
12.33288468, 45.43071284
12.32304358, 45.43497365
12.32306484, 45.43568136
12.32492521, 45.42419711
12.32754600, 45.42406291
12.32749268, 45.42388284
12.32735478, 45.42364564
12.32469218, 45.42396207
12.32454862, 45.42436018
12.34045809, 45.44181783
12.34126721, 45.44047703
12.34032705, 45.43976756
12.33840919, 45.44296882
12.33970027, 45.44354673
12.33824960, 45.44264485
12.32769595, 45.44521303
12.32759383, 45.44506482
12.32688087, 45.44538254
12.32737414, 45.44512658
12.32742878, 45.44321780
12.32731229, 45.44294023
12.33377551, 45.44115277
12.33400686, 45.44152588
12.34134370, 45.44099144
12.34141603, 45.44146614
12.34140519, 45.44150055
12.34003529, 45.43985139
12.34176976, 45.44236588
12.33914128, 45.44036017
12.33931241, 45.44045398
12.33278319, 45.44211712
12.33906019, 45.43986905
12.33937096, 45.43976691
12.33471865, 45.44066784
12.33647679, 45.44034013
12.33644576, 45.44007046
12.32377376, 45.44601125
12.31809776, 45.44511256
12.32041929, 45.44561112
12.33738574, 45.44252765
12.32930709, 45.44826534
12.32124748, 45.44761876
12.33082115, 45.44603527
12.32819578, 45.44801782
12.32857431, 45.44674674
12.33887913, 45.43966135
12.32396894, 45.44711787
12.32377442, 45.44706506
12.32741991, 45.44568993
12.32724914, 45.44517918
12.32573458, 45.44478328
12.32508511, 45.44413423
12.32631694, 45.44530695
12.32376556, 45.44279200
12.32921320, 45.44852652
12.31960661, 45.44660441
12.31972409, 45.44676961
12.33891627, 45.44145687
12.31938042, 45.44611355
12.31934232, 45.44604683
12.32092856, 45.44462156
12.33502567, 45.44054087
12.31991064, 45.44738210
12.32722984, 45.44451651
12.32240214, 45.44305097
12.32261221, 45.44323198
12.33990718, 45.44095810
12.34003437, 45.44118872
12.33753312, 45.44225154
12.33789073, 45.44215645
12.33761050, 45.44256219
12.32404840, 45.44428712
12.32573113, 45.44497290
12.32247135, 45.44139325
12.32271047, 45.44116276
12.32455435, 45.44652758
12.32431966, 45.44650286
12.32381737, 45.44706541
12.33997296, 45.44207876
12.33998480, 45.44189861
12.34010855, 45.44190442
12.32709612, 45.44668237
12.32730705, 45.44432769
12.32083277, 45.44732778
12.33078611, 45.44701695
12.31888714, 45.44582940
12.33676968, 45.44247449
12.33668383, 45.44248848
12.33190495, 45.44571254
12.33190582, 45.44387169
12.32826448, 45.44262635
12.33193999, 45.44493969
12.33206041, 45.44511409
12.32574830, 45.44284150
12.32654483, 45.44656417
12.33180826, 45.44495530
12.33180167, 45.44662813
12.33200470, 45.44697820
12.33211609, 45.44726162
12.33245661, 45.44742102
12.33232192, 45.44713529
12.32786451, 45.44368812
12.33974430, 45.44222800
12.33955201, 45.44205627
12.33272247, 45.44448939
12.32965651, 45.44453347
12.33941279, 45.43984889
12.32076633, 45.44206183
12.31858474, 45.44540847
12.31888423, 45.44564628
12.33110062, 45.44289402
12.33816744, 45.44359673
12.32890838, 45.44756711
12.34034707, 45.44009288
12.32567402, 45.44471750
12.34187146, 45.44206433
12.32108769, 45.44713133
12.32060242, 45.44741468
12.32133069, 45.44712465
12.33794076, 45.44074457
12.33774316, 45.44054293
12.33942473, 45.43917916
12.33923097, 45.43905666
12.33930616, 45.43913586
12.33737994, 45.44038855
12.31780091, 45.44517911
12.31806583, 45.44534105
12.32894999, 45.44809190
12.33828823, 45.44371766
12.33624582, 45.43998623
12.33623429, 45.43990684
12.33599728, 45.43995365
12.32986899, 45.44546980
12.33395415, 45.44382326
12.32962510, 45.44416557
12.33953667, 45.43990058
12.33109616, 45.44257708
12.33107596, 45.44274964
12.32850884, 45.44693735
12.32739900, 45.44681960
12.32886519, 45.44398087
12.33432300, 45.44147160
12.33892579, 45.43973665
12.32942318, 45.44296038
12.32262415, 45.44648059
12.32243954, 45.44624551
12.33702706, 45.44168541
12.32892946, 45.44627971
12.33189461, 45.44274751
12.33202713, 45.44280289
12.32708848, 45.44279611
12.32261844, 45.44549882
12.32814770, 45.44533536
12.33726617, 45.44048155
12.33791087, 45.43989135
12.33087895, 45.44677013
12.32237186, 45.44473716
12.32218410, 45.44443212
12.32755199, 45.44681872
12.31864141, 45.44488768
12.32810657, 45.44482130
12.33929167, 45.43944694
12.32686643, 45.44332586
12.32897138, 45.44290954
12.33245575, 45.44286155
12.32984014, 45.44439891
12.33000526, 45.44438420
12.33097089, 45.44512795
12.32932558, 45.44501049
12.33035014, 45.44628221
12.32914731, 45.44501096
12.33017766, 45.44647713
12.33062164, 45.44652632
12.32901405, 45.44529997
12.33578765, 45.44362835
12.33577893, 45.44347376
12.32782264, 45.44343452
12.31731473, 45.44505914
12.32997128, 45.44513616
12.32780382, 45.44533574
12.33233193, 45.44548400
12.33222012, 45.44538096
12.33804637, 45.44122844
12.33789931, 45.44135118
12.33718613, 45.44246219
12.34049194, 45.44147697
12.32570922, 45.44415846
12.32579425, 45.44425209
12.33760539, 45.44207399
12.33755959, 45.44211001
12.32532627, 45.44412738
12.33873788, 45.43994594
12.32426120, 45.44222969
12.33721087, 45.44211318
12.32571004, 45.44664370
12.34162747, 45.44138070
12.33696600, 45.44195060
12.33713762, 45.44192870
12.33708860, 45.44052041
12.32278798, 45.44648911
12.32244677, 45.44643254
12.32322278, 45.44628910
12.31903888, 45.44548522
12.33696818, 45.43898739
12.32225110, 45.44707525
12.32981627, 45.44517590
12.32114123, 45.44734197
12.33075373, 45.44290579
12.33111740, 45.44323076
12.33124452, 45.44302195
12.33921749, 45.44142713
12.33701295, 45.44141681
12.31829946, 45.44472218
12.32210232, 45.44572445
12.32820537, 45.44354802
12.33681293, 45.44085147
12.32837222, 45.44348169
12.32832499, 45.44338909
12.33477983, 45.44266726
12.32452600, 45.44780741
12.33504208, 45.44129117
12.33428304, 45.44195889
12.33547041, 45.44161606
12.33548796, 45.44187156
12.33458770, 45.44225579
12.33561237, 45.44174953
12.33575522, 45.44276595
12.34070238, 45.44157652
12.32071914, 45.44342656
12.34000007, 45.44082341
12.34121120, 45.44212156
12.32926801, 45.44297623
12.33669380, 45.43926336
12.33698223, 45.43926300
12.32941908, 45.44308631
12.32269617, 45.44470672
12.34036992, 45.44285763
12.32968870, 45.44310000
12.32254903, 45.44459543
12.32765134, 45.44321244
12.33140394, 45.44285973
12.31876360, 45.44527818
12.33613314, 45.44398583
12.33868928, 45.44043609
12.33834214, 45.44380435
12.33633784, 45.44104084
12.33957026, 45.44140770
12.33704783, 45.44152445
12.33241585, 45.44622732
12.33135724, 45.44638969
12.33249484, 45.44598834
12.33736477, 45.44274971
12.33979630, 45.44188869
12.33976309, 45.44183715
12.31938855, 45.44573179
12.32597515, 45.44392421
12.32777877, 45.44356866
12.32104594, 45.44249538
12.32032452, 45.44340504
12.32432875, 45.44300985
12.34076391, 45.44194911
12.32681534, 45.44399065
12.32682142, 45.44426024
12.33319972, 45.44217404
12.33687258, 45.43936288
12.33702842, 45.44158829
12.32907850, 45.44322544
12.32907648, 45.44307898
12.32325922, 45.44222127
12.33767397, 45.43901682
12.33769516, 45.43911538
12.33822194, 45.43872720
12.32549197, 45.44777369
12.33351725, 45.44563916
12.32559009, 45.44670790
12.33934086, 45.44171472
12.32426388, 45.44753978
12.33964343, 45.44169160
12.32547266, 45.44703229
12.32473854, 45.44700701
12.32065573, 45.44648574
12.32631293, 45.44654047
12.33958762, 45.44240118
12.33713674, 45.43988984
12.32550867, 45.44416219
12.32765464, 45.44351549
12.33956840, 45.44232532
12.33973390, 45.44251631
12.32538123, 45.44409131
12.33959301, 45.44001272
12.33687874, 45.44002192
12.33850645, 45.43926013
12.32736762, 45.44347761
12.32747603, 45.44352210
12.33871233, 45.44137686
12.33462881, 45.44257171
12.33459653, 45.44276315
12.33471794, 45.44252195
12.33067966, 45.44529587
12.33838827, 45.44188231
12.32692012, 45.44275017
12.33629320, 45.43941725
12.33672926, 45.43940762
12.33853400, 45.44190495
12.33878706, 45.44188594
12.33833370, 45.44167516
12.33879821, 45.44188451
12.33657248, 45.43944809
12.34077295, 45.44002172
12.31836723, 45.44511902
12.33277792, 45.44546504
12.33282789, 45.44539214
12.33283424, 45.44551417
12.32191599, 45.44643250
12.32735077, 45.44461323
12.33998059, 45.44236791
12.33989058, 45.44225098
12.32643636, 45.44605344
12.32030298, 45.44620818
12.31833372, 45.44499044
12.32935038, 45.44578000
12.34032713, 45.44210501
12.33711857, 45.43967703
12.33167327, 45.44273681
12.33575900, 45.44258310
12.33184470, 45.44282675
12.32620771, 45.44322374
12.32491415, 45.44649248
12.34135445, 45.44084185
12.33363491, 45.44447171
12.34110090, 45.44093329
12.33805187, 45.44051351
12.32829038, 45.44594746
12.32838668, 45.44633910
12.33728547, 45.44065922
12.33706517, 45.44079512
12.32771236, 45.44447243
12.33699964, 45.44458466
12.32779608, 45.44466495
12.33817472, 45.44171706
12.34135396, 45.44068559
12.34154054, 45.44062908
12.33546271, 45.44026306
12.34038508, 45.44101160
12.32667986, 45.44734837
12.32726771, 45.44762035
12.33987404, 45.44043097
12.32526330, 45.44671350
12.32857595, 45.44802986
12.32819260, 45.44771025
12.32835790, 45.44795855
12.32816886, 45.44667164
12.34116836, 45.44249648
12.33042558, 45.44377252
12.33109531, 45.44231221
12.33298565, 45.44148707
12.33790456, 45.44084209
12.33831680, 45.44055290
12.32951468, 45.44609538
12.32070839, 45.44558625
12.33340161, 45.44423924
12.31282663, 45.43261350
12.31184648, 45.43283630
12.31293134, 45.43325309
12.31196906, 45.43221833
12.31287157, 45.43304847
12.31157857, 45.43278914
12.31291667, 45.43206326
12.33275405, 45.43425241
12.34053075, 45.43904632
12.32635698, 45.43843139
12.33637889, 45.43368151
12.33487399, 45.43495437
12.33256793, 45.43329515
12.33221251, 45.43339927
12.33727334, 45.43429581
12.33245293, 45.43319506
12.33700669, 45.43523712
12.32600872, 45.43393757
12.32621283, 45.43571357
12.33008139, 45.43925438
12.33781378, 45.42508854
12.33331499, 45.43014726
12.32534063, 45.43608302
12.32373323, 45.43165010
12.33062150, 45.43901613
12.32961407, 45.44385765
12.33273940, 45.43787789
12.34283683, 45.43853536
12.33086651, 45.43926403
12.33398720, 45.43880081
12.33317621, 45.42991371
12.33338695, 45.42995358
12.32399396, 45.44049169
12.32415492, 45.43617064
12.33432780, 45.43295226
12.32270235, 45.43331299
12.34310775, 45.43756911
12.34305962, 45.43768849
12.34451430, 45.43692547
12.33390668, 45.43968554
12.33295934, 45.43007761
12.33325344, 45.43821596
12.33420138, 45.43940905
12.34394963, 45.43575547
12.35683076, 45.42896289
12.32757032, 45.42594269
12.31786001, 45.44483340
12.33753186, 45.43792452
12.33440906, 45.43934231
12.32763712, 45.42609098
12.33991041, 45.43625016
12.32373142, 45.44040497
12.33703675, 45.43813536
12.32488984, 45.44006784
12.32868428, 45.43796959
12.33726943, 45.43781424
12.34424399, 45.44095051
12.34097671, 45.43683452
12.33424512, 45.43311832
12.32035603, 45.44749375
12.33771673, 45.43886961
12.33785721, 45.43879413
12.33044869, 45.43762638
12.31960871, 45.44765322
12.35800987, 45.43021732
12.35564319, 45.43063032
12.35418105, 45.43225592
12.35420454, 45.43196356
12.35706562, 45.42923744
12.32018512, 45.43246134
12.34018093, 45.44290892
12.36070779, 45.43320624
12.33196995, 45.43761590
12.33342115, 45.43043938
12.32814041, 45.43997157
12.34232872, 45.43672227
12.33739910, 45.43647120
12.33830555, 45.43726946
12.34504346, 45.43880576
12.32897421, 45.42983113
12.32346636, 45.43482410
12.33806796, 45.43869870
12.31986378, 45.44758384
12.33104879, 45.43908500
12.31706134, 45.44445331
12.32345015, 45.44582404
12.33465669, 45.43814985
12.33841216, 45.42529739
12.33745944, 45.43897079
12.33757637, 45.43891511
12.33688256, 45.44133437
12.33386651, 45.44166646
12.32421911, 45.43372020
12.32768568, 45.43105296
12.32889882, 45.43806929
12.33074798, 45.43721249
12.33709182, 45.43779936
12.32052372, 45.43258975
12.31601093, 45.42696424
12.32302883, 45.43228438
12.33267862, 45.44176334
12.33914870, 45.43557201
12.32331362, 45.44552767
12.33384147, 45.43020169
12.33751069, 45.44128634
12.33791787, 45.44065448
12.32361732, 45.44225523
12.32761729, 45.43847198
12.33887950, 45.43822235
12.34734525, 45.43517021
12.33445714, 45.43412742
12.33943422, 45.43748851
12.33721525, 45.43730619
12.32691415, 45.43518813
12.34478893, 45.43877540
12.33314493, 45.43957685
12.32192007, 45.44398781
12.32870663, 45.44309452
12.33373737, 45.44305681
12.33951936, 45.44363203
12.33424602, 45.43263445
12.33266197, 45.43943342
12.32713768, 45.43517131
12.34060102, 45.43601086
12.32344066, 45.43645337
12.33325237, 45.44338067
12.33390346, 45.44308434
12.32983596, 45.43814236
12.31907529, 45.43607379
12.32306694, 45.43664605
12.32557547, 45.44085474
12.32814942, 45.43615746
12.33317842, 45.43855261
12.32629667, 45.43770262
12.32531584, 45.44078715
12.32951312, 45.43391599
12.35675707, 45.43391422
12.33342787, 45.43838668
12.32742568, 45.43845231
12.32989950, 45.43678262
12.33303707, 45.43933725
12.33298749, 45.43942539
12.32884106, 45.42957612
12.32884399, 45.42957148
12.32622133, 45.43207753
12.34829528, 45.43491580
12.32350576, 45.43337072
12.32571669, 45.44091494
12.31777953, 45.42728305
12.33106829, 45.44054873
12.32886375, 45.43893691
12.32646607, 45.44026517
12.32805570, 45.43722691
12.32005559, 45.44302660
12.34219408, 45.44190231
12.33687130, 45.43711388
12.32902471, 45.44785270
12.31820867, 45.43616085
12.33474124, 45.43865051
12.33480718, 45.43867267
12.32840291, 45.43904354
12.33296432, 45.43715457
12.33150335, 45.42955284
12.32853757, 45.44361495
12.35618644, 45.42950381
12.34453485, 45.43865606
12.33840724, 45.43499665
12.33834154, 45.43512373
12.33846545, 45.43507743
12.33619868, 45.43777375
12.33240247, 45.43493606
12.33851917, 45.43724004
12.31594466, 45.42842368
12.31524636, 45.42833765
12.32884712, 45.44460298
12.31616175, 45.43298804
12.31568318, 45.43259983
12.31581970, 45.43281414
12.32452721, 45.43384560
12.32047342, 45.43204069
12.34283343, 45.43754944
12.33864571, 45.43510915
12.35707049, 45.42848115
12.35651188, 45.42878133
12.35755306, 45.43393930
12.34228688, 45.43856000
12.33804432, 45.43673732
12.34331023, 45.43881027
12.34350211, 45.43864940
12.33756509, 45.43654842
12.33775793, 45.43635925
12.33333009, 45.43456137
12.32960511, 45.43460483
12.33559794, 45.43496386
12.33806292, 45.43606978
12.33791722, 45.43612342
12.33443610, 45.43521495
12.31459688, 45.42804575
12.32682329, 45.44763818
12.34952096, 45.43388407
12.34653545, 45.43423844
12.33512912, 45.44278083
12.33640996, 45.43978261
12.33643220, 45.43804477
12.33830800, 45.43406839
12.33849285, 45.43615175
12.33339012, 45.43463834
12.32966595, 45.43492203
12.32970389, 45.43505080
12.32920586, 45.43254722
12.32931289, 45.43265405
12.33172468, 45.43528548
12.33137906, 45.43471409
12.33308171, 45.43898866
12.31828477, 45.44571799
12.32518318, 45.43353974
12.33564471, 45.43597381
12.33689188, 45.43606876
12.33144236, 45.44262489
12.33644024, 45.43797416
12.32206888, 45.42605341
12.31959907, 45.42647576
12.32504756, 45.43658616
12.32121303, 45.42634278
12.31277468, 45.43233761
12.32447779, 45.44503207
12.31910227, 45.43198872
12.31242979, 45.43245644
12.33874044, 45.43508052
12.32781624, 45.44403594
12.32822480, 45.44407686
12.31271373, 45.43247562
12.31296984, 45.43248448
12.31258322, 45.43219993
12.31228543, 45.43221770
12.31286980, 45.43222921
12.31344156, 45.43225232
12.31316144, 45.43221442
12.31278130, 45.43283343
12.33085431, 45.43763813
12.35701463, 45.43282935
12.34369420, 45.43702846
12.32039368, 45.44748923
12.33969246, 45.43850943
12.33895648, 45.43598079
12.35709630, 45.43266309
12.33911683, 45.43604303
12.34159939, 45.43437312
12.36091301, 45.42707409
12.35526401, 45.43010042
12.36074850, 45.42732547
12.34608910, 45.43901298
12.32466727, 45.43466817
12.34617684, 45.43948552
12.35296403, 45.43211538
12.34817626, 45.43621638
12.32469142, 45.43476044
12.32745795, 45.42949178
12.34471849, 45.43853160
12.34495284, 45.43853515
12.33421979, 45.43357097
12.33429024, 45.43366471
12.31375113, 45.43223768
12.31213433, 45.43279292
12.31245826, 45.43281786
12.31345571, 45.43266443
12.33174532, 45.43858228
12.32849024, 45.44455527
12.31226982, 45.43311705
12.35512603, 45.42990523
12.33343761, 45.43327286
12.32358135, 45.43884901
12.34052893, 45.43497492
12.34115268, 45.43957054
12.33186370, 45.43985112
12.33165693, 45.43963627
12.33756172, 45.43709140
12.32968497, 45.43909734
12.33267159, 45.43973981
12.32763128, 45.43586505
12.32916068, 45.43617810
12.33104718, 45.43788553
12.32833915, 45.43800671
12.32851654, 45.43825239
12.32872183, 45.43953833
12.33437954, 45.42926667
12.32645009, 45.42597003
12.33379972, 45.43877280
12.33366580, 45.43884826
12.33857982, 45.43652431
12.32777761, 45.43850971
12.32215123, 45.43897380
12.32141461, 45.43868092
12.32688001, 45.44100265
12.32690546, 45.44084060
12.32651895, 45.44087509
12.32026419, 45.43577193
12.32017716, 45.43604965
12.32911426, 45.44124477
12.32232540, 45.44014528
12.32430540, 45.44074463
12.33046505, 45.43997410
12.32249053, 45.44012360
12.32737228, 45.44138048
12.32568117, 45.44126242
12.32759035, 45.44005956
12.32292289, 45.44008319
12.32404630, 45.44112718
12.32215791, 45.44033228
12.32703613, 45.43547786
12.32115650, 45.43701884
12.33923945, 45.43627849
12.32250466, 45.43659292
12.33046384, 45.43481202
12.33656088, 45.43486832
12.33605617, 45.43457415
12.33603154, 45.43455235
12.33368293, 45.43608144
12.33364319, 45.43606093
12.33399722, 45.43078190
12.33102094, 45.43062197
12.33098951, 45.43045422
12.33315451, 45.43792433
12.33454122, 45.43854299
12.33591324, 45.43847509
12.32968997, 45.43679177
12.33134705, 45.43879010
12.33133950, 45.43870454
12.33244752, 45.43897191
12.33234917, 45.43890233
12.33265923, 45.43884825
12.33336596, 45.43812313
12.32984779, 45.43672798
12.33506170, 45.43857021
12.32442161, 45.44082668
12.32293631, 45.43950044
12.32140623, 45.43727630
12.32847685, 45.44045765
12.32879628, 45.44024784
12.32861991, 45.44048776
12.32703598, 45.44062222
12.32724356, 45.44173512
12.32245773, 45.44050551
12.32110528, 45.43762313
12.32211084, 45.44032565
12.33082752, 45.44151825
12.32988341, 45.44098153
12.32766268, 45.44151054
12.32729379, 45.44159381
12.32771061, 45.44181948
12.33702722, 45.43848382
12.32023210, 45.43620263
12.34098665, 45.43367390
12.32810361, 45.43929351
12.31992918, 45.43709765
12.34023257, 45.43576434
12.32033376, 45.43551466
12.32920219, 45.44021458
12.33089253, 45.42940320
12.33139208, 45.42936984
12.33141306, 45.42949067
12.32843961, 45.42592595
12.33483505, 45.43838378
12.33194869, 45.43861292
12.32326892, 45.43798453
12.32327718, 45.43848980
12.32867644, 45.43934757
12.32853329, 45.43951141
12.33194704, 45.43959639
12.33521780, 45.43870748
12.33427646, 45.43874485
12.32451928, 45.43872805
12.32491334, 45.43906557
12.33168165, 45.44060589
12.33185337, 45.44086891
12.33183210, 45.44079766
12.33183901, 45.44054524
12.32788405, 45.44183077
12.32798769, 45.44206312
12.32504024, 45.44153770
12.32511046, 45.44136598
12.31902477, 45.43620622
12.31954097, 45.43745353
12.32547847, 45.43871090
12.31983567, 45.43862450
12.31696907, 45.43951287
12.31643219, 45.43519228
12.31396541, 45.43691636
12.32836455, 45.43948783
12.32414364, 45.43563263
12.31728030, 45.43490598
12.32295647, 45.43804859
12.32098500, 45.43707118
12.33340386, 45.43863568
12.33321556, 45.43885516
12.33367566, 45.43891351
12.32491192, 45.43724494
12.32463276, 45.43741056
12.32997094, 45.43757096
12.32569596, 45.43638036
12.32559735, 45.43673905
12.31943076, 45.43887613
12.31980352, 45.43621688
12.32611826, 45.43926645
12.32592965, 45.43910981
12.32588642, 45.43901889
12.33020818, 45.44018441
12.32088162, 45.43919116
12.32982250, 45.44140158
12.32988004, 45.44153005
12.32311555, 45.43869599
12.32335896, 45.43880788
12.31743529, 45.43501098
12.33044127, 45.43971115
12.33064794, 45.43962787
12.31674171, 45.43810368
12.32420449, 45.44056444
12.32704743, 45.44048617
12.32922017, 45.44139078
12.32729172, 45.44059948
12.33814881, 45.43859505
12.33092193, 45.43885463
12.32442367, 45.43614436
12.32021024, 45.43713211
12.34015192, 45.43970667
12.32689319, 45.43825738
12.32576180, 45.43654262
12.33344745, 45.43762185
12.32688020, 45.43801126
12.32707547, 45.43764744
12.32782853, 45.43611995
12.32736274, 45.43606969
12.32804775, 45.43616302
12.33149322, 45.43962071
12.33077115, 45.44005718
12.33092247, 45.44007697
12.32286649, 45.43874602
12.31798202, 45.43674249
12.32971337, 45.43933598
12.32335693, 45.43700661
12.33074163, 45.44020518
12.33070244, 45.44017157
12.32514397, 45.44103714
12.32960826, 45.43998284
12.32727335, 45.44050063
12.32340576, 45.43903229
12.33131556, 45.43973165
12.32817188, 45.44105995
12.33004973, 45.44031467
12.32245530, 45.43681302
12.32254957, 45.43691906
12.32558713, 45.43980964
12.32670067, 45.43941173
12.32623999, 45.43945516
12.32836510, 45.42573540
12.33407956, 45.43033125
12.33403217, 45.43028407
12.33424813, 45.42943350
12.33413466, 45.42955135
12.33291987, 45.43872456
12.32812590, 45.43846050
12.32834811, 45.43882557
12.32792193, 45.43850698
12.32837335, 45.43853090
12.33232776, 45.43782546
12.33240554, 45.43821081
12.32972649, 45.43996456
12.32997448, 45.43915476
12.33066847, 45.44077151
12.32374892, 45.43676768
12.32142608, 45.43900410
12.32951467, 45.44097637
12.33086967, 45.44066981
12.32360092, 45.43642530
12.32130562, 45.43893026
12.33404105, 45.43868077
12.34903505, 45.43571430
12.32942014, 45.43400433
12.34647490, 45.43725554
12.33097426, 45.43894066
12.31776927, 45.43712812
12.32790505, 45.43930573
12.32176294, 45.43855451
12.32768852, 45.43916910
12.32152008, 45.43853842
12.32775530, 45.43922284
12.33053614, 45.43885851
12.33032841, 45.43871687
12.33017372, 45.43877264
12.32582059, 45.43984206
12.31443578, 45.44070622
12.32891924, 45.43814291
12.32857294, 45.43793411
12.32848444, 45.43698753
12.33256041, 45.43752673
12.33276918, 45.43725352
12.32914402, 45.43883230
12.32920266, 45.43889970
12.33449765, 45.43926574
12.33468735, 45.43916263
12.32762382, 45.43622075
12.32578599, 45.44060719
12.32545523, 45.44068299
12.32269948, 45.43941449
12.33096229, 45.44133479
12.32559204, 45.43970030
12.32746087, 45.44054952
12.32755957, 45.44096522
12.31131544, 45.44129819
12.31557685, 45.43842711
12.32778805, 45.43954813
12.32919249, 45.44067332
12.33054539, 45.44019980
12.32890573, 45.44082149
12.32881096, 45.44087061
12.33040584, 45.44015765
12.33094408, 45.44039528
12.33102234, 45.44027778
12.33095501, 45.44031352
12.32616181, 45.43652008
12.32825294, 45.44175988
12.32905985, 45.43950091
12.32992586, 45.43445002
12.31717542, 45.42853466
12.32613360, 45.43829128
12.32518789, 45.43635750
12.33487220, 45.43897244
12.32836204, 45.43698158
12.33295442, 45.43854771
12.33280269, 45.43836751
12.32765771, 45.43796144
12.33357111, 45.43911462
12.33318291, 45.43931686
12.33331818, 45.43924369
12.32750981, 45.44079580
12.32255680, 45.43894890
12.32257446, 45.43876472
12.32329300, 45.43888564
12.33000126, 45.43946496
12.32821582, 45.44068062
12.32076036, 45.43742587
12.32037021, 45.43736919
12.32053386, 45.43746448
12.32134920, 45.43883787
12.32323809, 45.44063345
12.32297818, 45.43642454
12.32142678, 45.43766180
12.32123152, 45.43787826
12.32262453, 45.43956546
12.32234667, 45.43989964
12.31995449, 45.43678672
12.31939218, 45.43709759
12.32986515, 45.44127390
12.32961206, 45.44131733
12.32653991, 45.43848708
12.33120708, 45.43715522
12.32813284, 45.43754011
12.32689528, 45.43698052
12.32725129, 45.43731787
12.32716954, 45.43726818
12.33101531, 45.43770778
12.33096736, 45.43781210
12.33402697, 45.43906651
12.33418292, 45.43907124
12.33427416, 45.43896528
12.33345607, 45.43794769
12.33410879, 45.43920596
12.33017117, 45.43700098
12.33178605, 45.43821597
12.33379336, 45.43923851
12.33100661, 45.43806452
12.33389491, 45.43827119
12.33418983, 45.43787768
12.32655673, 45.43808803
12.32767809, 45.43718213
12.32817773, 45.43683125
12.32834792, 45.43691985
12.33142694, 45.43830032
12.32964848, 45.44037105
12.32953413, 45.44043808
12.32518410, 45.43900269
12.32539820, 45.43908146
12.32539855, 45.43908172
12.32490777, 45.43973203
12.32816688, 45.43952740
12.32817351, 45.43959595
12.32946115, 45.44197243
12.31408849, 45.44102389
12.32582180, 45.43940379
12.32775188, 45.44054421
12.33144834, 45.43474113
12.33505864, 45.43811673
12.33493098, 45.43814116
12.32666079, 45.43615591
12.32646640, 45.43595409
12.32869096, 45.43910810
12.33011412, 45.43661598
12.33004350, 45.43644316
12.33010390, 45.43652781
12.32441151, 45.43855775
12.32547661, 45.43833233
12.32668855, 45.43636303
12.32621676, 45.43884336
12.33037783, 45.43707692
12.32623233, 45.43620009
12.33137530, 45.43845564
12.33130650, 45.43802434
12.33262372, 45.44040504
12.33094848, 45.43882818
12.32505497, 45.43683036
12.33230597, 45.43769567
12.33371891, 45.43915077
12.33447288, 45.43852227
12.32906790, 45.44138381
12.32853515, 45.44126619
12.32929840, 45.44205964
12.32842232, 45.44093876
12.32854742, 45.44089329
12.32838546, 45.44140127
12.32862088, 45.44077355
12.32903398, 45.44057043
12.32894094, 45.44059555
12.32898975, 45.44067988
12.32754803, 45.44068776
12.32452058, 45.43916384
12.32826168, 45.44009407
12.32826867, 45.44009462
12.33025907, 45.44033493
12.32620659, 45.44177388
12.32625229, 45.44148073
12.32619220, 45.44136560
12.32337452, 45.44073210
12.32340255, 45.43668697
12.32333070, 45.43654880
12.32610672, 45.44060043
12.33112152, 45.43744981
12.32868173, 45.43690363
12.32885767, 45.43693046
12.32876044, 45.43683758
12.33271157, 45.43987885
12.33132378, 45.43751553
12.32943829, 45.43422474
12.33184608, 45.43749277
12.33010149, 45.44103314
12.33455667, 45.43837439
12.32801026, 45.43593825
12.32825917, 45.43569962
12.32827917, 45.43586476
12.33343457, 45.43726214
12.32775115, 45.43557411
12.33109844, 45.43677019
12.32714792, 45.43829113
12.32202494, 45.43682117
12.32410418, 45.43652178
12.32411124, 45.43628329
12.32125787, 45.43853144
12.33163032, 45.43999268
12.32406359, 45.43578050
12.32418445, 45.43603314
12.32394588, 45.43600224
12.35895648, 45.43359614
12.32621408, 45.44059921
12.32223360, 45.44657183
12.32182295, 45.44665853
12.32138105, 45.44680965
12.33369644, 45.44186345
12.35848880, 45.43076363
12.34663623, 45.43498434
12.32642290, 45.43786677
12.33108399, 45.43737370
12.33225739, 45.43731165
12.33154352, 45.43730505
12.32838270, 45.43672380
12.33143410, 45.43725801
12.32697318, 45.43614593
12.33337922, 45.43881790
12.33024937, 45.43708655
12.33134390, 45.43739035
12.33158614, 45.43749915
12.33238341, 45.44005432
12.32738327, 45.43636839
12.33353670, 45.43854718
12.32644817, 45.43828637
12.32750614, 45.43727276
12.32734930, 45.43726512
12.33068164, 45.43895201
12.33029883, 45.43915467
12.32970074, 45.44105087
12.34645726, 45.43410736
12.31737163, 45.42819143
12.33790145, 45.43545745
12.33776085, 45.43544519
12.32293580, 45.43914299
12.32310897, 45.43918443
12.32574543, 45.44008125
12.32458206, 45.43961383
12.32982893, 45.44011905
12.32973887, 45.44016801
12.32427747, 45.43647223
12.32766589, 45.43952523
12.32730391, 45.43930807
12.32721808, 45.43927653
12.32664110, 45.43922305
12.32677278, 45.43901867
12.34227192, 45.43792566
12.34159989, 45.43753629
12.34159264, 45.43786199
12.36295539, 45.42869735
12.36319352, 45.42756601
12.35898192, 45.42764485
12.34539180, 45.43395185
12.31935343, 45.43448214
12.33644826, 45.42565324
12.32441463, 45.42417559
12.31951150, 45.43463256
12.32283143, 45.43448596
12.33368693, 45.43974868
12.33232065, 45.43996876
12.33263442, 45.44009027
12.33245274, 45.44017301
12.33245032, 45.43838612
12.33217383, 45.43838246
12.33403146, 45.43891506
12.33410456, 45.43896840
12.33421601, 45.43882393
12.32856596, 45.43702639
12.32881073, 45.43700555
12.33209030, 45.43922987
12.33182696, 45.43927223
12.33561463, 45.43856566
12.32838538, 45.43630583
12.32664816, 45.43960652
12.32661442, 45.43946053
12.32336419, 45.43627300
12.32533347, 45.43963694
12.32346629, 45.43574370
12.32336676, 45.43576662
12.32505103, 45.44043194
12.32551110, 45.44102527
12.32170830, 45.43832768
12.32601574, 45.44055796
12.32596777, 45.44100481
12.32010787, 45.43627879
12.32012660, 45.43800971
12.31777762, 45.43636024
12.33907863, 45.43303393
12.32066747, 45.43796078
12.31690299, 45.43646836
12.31968807, 45.43717525
12.31570474, 45.43874718
12.32845323, 45.43654935
12.33318891, 45.43900538
12.33314049, 45.43899153
12.32902447, 45.43928230
12.32624543, 45.43862291
12.33304015, 45.44007936
12.32898882, 45.43923669
12.32606892, 45.43860129
12.33338949, 45.44017192
12.33403913, 45.43845282
12.32324838, 45.43646709
12.32647709, 45.43999888
12.32697819, 45.44150377
12.32730951, 45.44146781
12.32222342, 45.43957359
12.32271270, 45.43919013
12.31972456, 45.43675383
12.31952936, 45.43677530
12.33103653, 45.44106724
12.33114609, 45.44085571
12.33121563, 45.44095661
12.32730379, 45.44032978
12.32461560, 45.44119380
12.32478238, 45.44130431
12.35909052, 45.43376635
12.33515908, 45.43857946
12.33477053, 45.43889984
12.33407407, 45.43951905
12.33470069, 45.43860168
12.33535993, 45.43826908
12.33508378, 45.43847915
12.33498160, 45.43840625
12.33505279, 45.43843295
12.33789142, 45.43442328
12.32539118, 45.43594040
12.32557039, 45.44187740
12.31800752, 45.43663859
12.31655793, 45.43610956
12.31978121, 45.43698426
12.33043096, 45.44107922
12.31729560, 45.42847348
12.32708600, 45.43625106
12.32330716, 45.43963307
12.33419667, 45.43925436
12.33724642, 45.43653554
12.33341420, 45.43857821
12.32888085, 45.43977173
12.33161943, 45.44045629
12.33163687, 45.44041150
12.31997355, 45.43787027
12.32793750, 45.44166709
12.32531476, 45.44120987
12.32548564, 45.44114972
12.33146290, 45.44038766
12.33129368, 45.44046720
12.33079143, 45.43955942
12.33120491, 45.43981127
12.31926990, 45.43536755
12.31380901, 45.42716853
12.33289242, 45.43721965
12.33305607, 45.43705583
12.33276552, 45.43717523
12.32716983, 45.43670412
12.33189393, 45.43770126
12.33439032, 45.43976149
12.33376818, 45.43995260
12.33111779, 45.43692209
12.33104950, 45.43700688
12.32938822, 45.43817100
12.33327161, 45.43914918
12.33262558, 45.43964697
12.33286476, 45.43982717
12.32261470, 45.43938727
12.32598798, 45.43964372
12.32435543, 45.43951195
12.32387695, 45.43924388
12.32790935, 45.44130216
12.32654318, 45.43914223
12.32475641, 45.43973579
12.32436494, 45.43997667
12.32884633, 45.44004924
12.32892099, 45.44013561
12.32923832, 45.44010876
12.32927673, 45.44052108
12.31818036, 45.43516686
12.32989403, 45.44042593
12.32975485, 45.44050536
12.33180057, 45.44012333
12.32963382, 45.43958352
12.34589804, 45.43698447
12.32691245, 45.43999344
12.32698220, 45.44024394
12.34914133, 45.43470676
12.30629460, 45.44086284
12.31363460, 45.42719298
12.32168473, 45.43785282
12.32136548, 45.43813601
12.32441658, 45.44018405
12.32467395, 45.44032972
12.31809185, 45.43898337
12.31424212, 45.42683710
12.31862641, 45.43793431
12.31838146, 45.43736880
12.31682300, 45.43738261
12.31416296, 45.42830321
12.31439442, 45.42745274
12.32961378, 45.44012589
12.32930438, 45.43968626
12.32377080, 45.43586758
12.32362231, 45.43578589
12.32700116, 45.43664456
12.32690432, 45.43656629
12.33305592, 45.43742355
12.33267283, 45.43761255
12.32904400, 45.43687937
12.32861908, 45.43670854
12.33074358, 45.44515481
12.33204845, 45.43753462
12.35718159, 45.43377898
12.33551970, 45.43542089
12.35002076, 45.43232726
12.34981728, 45.43264979
12.35757783, 45.43463702
12.35820528, 45.43451575
12.34267814, 45.43815047
12.33551560, 45.43282642
12.33541771, 45.43295234
12.33760533, 45.43613043
12.33721248, 45.43638741
12.33148969, 45.43710980
12.33193092, 45.43737088
12.33149520, 45.43690336
12.33563560, 45.43460644
12.33365104, 45.43297176
12.33560544, 45.43455328
12.33385745, 45.43290902
12.33524438, 45.43627552
12.33590852, 45.43491917
12.36076781, 45.42855267
12.36140130, 45.42849083
12.33578471, 45.43530989
12.33635254, 45.43461272
12.33626722, 45.43455806
12.33615062, 45.43471828
12.33671798, 45.43429732
12.33274636, 45.43475219
12.33347275, 45.43504250
12.33654147, 45.43549551
12.31709701, 45.43974797
12.31998950, 45.42748616
12.33753967, 45.43952239
12.33672696, 45.43532395
12.33027084, 45.43214875
12.33022116, 45.43202905
12.34014277, 45.43338708
12.33960417, 45.43375021
12.33050999, 45.43528647
12.33628941, 45.43806357
12.31518312, 45.42736845
12.31596311, 45.42683833
12.31524827, 45.42667462
12.33681510, 45.43333177
12.32943872, 45.43263611
12.32925086, 45.43274342
12.32984006, 45.44378755
12.33057727, 45.44352932
12.35817589, 45.42786638
12.35655938, 45.43014408
12.35859633, 45.42819375
12.35576343, 45.43026690
12.35608346, 45.43023083
12.31193080, 45.44042661
12.33778844, 45.43768989
12.32551467, 45.44368129
12.32510276, 45.44377311
12.32716155, 45.44379055
12.32192377, 45.44539736
12.31890224, 45.44723542
12.33158640, 45.43031794
12.35367160, 45.43187611
12.33804143, 45.43759815
12.36002201, 45.42651993
12.36290834, 45.42773703
12.36102264, 45.42709950
12.31669214, 45.42863858
12.32682233, 45.44454091
12.32711415, 45.44490120
12.33057574, 45.43721807
12.33056621, 45.43723724
12.33081973, 45.43719994
12.33099402, 45.43724390
12.33499453, 45.43783754
12.32796590, 45.42438658
12.32769222, 45.42457455
12.32547104, 45.43605625
12.34248376, 45.43508559
12.32553737, 45.43617826
12.33257597, 45.43071760
12.33263210, 45.42974383
12.32571501, 45.43426386
12.32549891, 45.43391209
12.31614030, 45.43256815
12.31584027, 45.43225995
12.33482627, 45.43772172
12.33445372, 45.43809264
12.34814127, 45.43363283
12.30943460, 45.42688855
12.34927253, 45.43485431
12.34936227, 45.43483186
12.34171050, 45.43731674
12.34205820, 45.43740755
12.34461397, 45.43513264
12.34470135, 45.43502516
12.33427847, 45.43221358
12.33417593, 45.43244285
12.33399617, 45.43245480
12.34273404, 45.43493322
12.33080909, 45.42447151
12.33135066, 45.42470141
12.33075711, 45.43037552
12.32523458, 45.43628656
12.32514733, 45.43615552
12.32098908, 45.43700788
12.32182458, 45.43675491
12.32395448, 45.43514393
12.33393544, 45.43270984
12.33398477, 45.43258111
12.33455558, 45.43270180
12.33465058, 45.43243917
12.33585860, 45.43375231
12.33559094, 45.43364519
12.33987002, 45.44083125
12.32860167, 45.44832814
12.33279075, 45.44136536
12.31934113, 45.43386640
12.31961418, 45.43358197
12.31903753, 45.43418484
12.32633592, 45.44092717
12.32649241, 45.44127897
12.35873415, 45.43149210
12.32798021, 45.44517816
12.32805314, 45.44521846
12.33262624, 45.43718216
12.33246915, 45.43740028
12.33545083, 45.44330903
12.33546011, 45.44330458
12.34044264, 45.42766136
12.33982571, 45.42736698
12.33068493, 45.43678283
12.33081123, 45.43660856
12.33061909, 45.43696629
12.32864875, 45.43723125
12.32844209, 45.43709459
12.32623694, 45.44399561
12.32595571, 45.44340813
12.32643537, 45.44342554
12.32833567, 45.43818426
12.32856808, 45.43839947
12.35855765, 45.43135564
12.34767321, 45.43486115
12.34735703, 45.43501941
12.34090471, 45.43902928
12.35255915, 45.43115102
12.32986393, 45.43649476
12.32979270, 45.43638005
12.32193177, 45.43839689
12.32216939, 45.43845350
12.31976306, 45.43777969
12.32000645, 45.43830770
12.35330652, 45.43229037
12.34008885, 45.43817559
12.33967630, 45.43826526
12.33986345, 45.43822631
12.34201985, 45.43471254
12.34506069, 45.43893403
12.34908452, 45.43407846
12.34875677, 45.43449517
12.31333326, 45.42765525
12.31760394, 45.43915538
12.31600803, 45.43852425
12.33088356, 45.43917284
12.33091060, 45.43907714
12.33834606, 45.43463275
12.33837291, 45.43466315
12.33208062, 45.43788285
12.32883270, 45.43243192
12.32789827, 45.43395061
12.33268274, 45.43194466
12.33522772, 45.43716106
12.33537920, 45.43725346
12.32753232, 45.43421090
12.33593274, 45.43771836
12.32789958, 45.43351429
12.33189801, 45.43803534
12.32866721, 45.42587880
12.35593688, 45.43231305
12.33357146, 45.43237279
12.32252184, 45.43802802
12.33733717, 45.43739823
12.32667870, 45.43663855
12.32813531, 45.43998072
12.34251358, 45.43682473
12.32178136, 45.43794482
12.33329445, 45.42444544
12.33843242, 45.43592795
12.32917988, 45.43211562
12.33733649, 45.43241053
12.33134093, 45.43174679
12.34752277, 45.43670375
12.32195890, 45.43797073
12.34225322, 45.43846460
12.34547825, 45.43563401
12.34727682, 45.43716996
12.34243583, 45.43881176
12.33913851, 45.43722954
12.34187539, 45.43500856
12.33047563, 45.43550982
12.33011580, 45.43543680
12.33201923, 45.43576195
12.33480058, 45.43239976
12.33297333, 45.43187073
12.32978050, 45.43501289
12.33082459, 45.43158239
12.34656622, 45.43535225
12.34675770, 45.43740249
12.35723504, 45.43449305
12.34288443, 45.43612663
12.33701731, 45.43826723
12.32862878, 45.43365899
12.33641724, 45.43776607
12.33470386, 45.43575776
12.33623480, 45.43327625
12.33586044, 45.43684295
12.33695616, 45.43280751
12.32902513, 45.43276408
12.33228991, 45.43084168
12.32613554, 45.43258828
12.33616009, 45.43104807
12.32811921, 45.43030714
12.33511802, 45.43096011
12.33282928, 45.43525145
12.33903758, 45.43588470
12.34119764, 45.43789661
12.34038261, 45.43947333
12.32856039, 45.43905053
12.33912210, 45.43581473
12.35132046, 45.43236301
12.33698977, 45.43664417
12.32544400, 45.43643695
12.33072462, 45.43937751
12.35118049, 45.43234042
12.32545860, 45.44049256
12.33264599, 45.43347470
12.33439870, 45.43067849
12.33695648, 45.43096301
12.33017353, 45.43079538
12.33589612, 45.44286426
12.33956450, 45.44128660
12.32390380, 45.43617779
12.32724552, 45.44131599
12.33591326, 45.43367811
12.32896269, 45.44016019
12.32667858, 45.44142368
12.32701880, 45.44124496
12.33021167, 45.44055082
12.32617160, 45.43381106
12.32696358, 45.43328409
12.33311171, 45.43087700
12.33301084, 45.43692874
12.33134116, 45.43666811
12.35762241, 45.43001899
12.32324061, 45.44384300
12.33328002, 45.43475378
12.33765978, 45.44170213
12.32380039, 45.44210730
12.32773280, 45.44096675
12.33654806, 45.44096390
12.33459576, 45.43755711
12.33788258, 45.43977101
12.32507399, 45.44347803
12.33706046, 45.43908302
12.33263908, 45.44217710
12.33809684, 45.44238241
12.33870511, 45.44356282
12.33777955, 45.44192478
12.31874937, 45.43231494
12.33069598, 45.42971821
12.31950056, 45.43146383
12.32887474, 45.43936447
12.32962804, 45.43701425
12.32050461, 45.44565788
12.34659798, 45.43721740
12.35720831, 45.43127217
12.32743996, 45.43646670
12.33690268, 45.43755953
12.32865875, 45.42915761
12.31915194, 45.44619499
12.32872133, 45.42927896
12.33887356, 45.43835896
12.32397661, 45.44098311
12.33702191, 45.44288015
12.32551605, 45.44405412
12.33321439, 45.44009729
12.33746969, 45.43867160
12.32784444, 45.43408130
12.32473250, 45.43387449
12.32497068, 45.43362494
12.32687972, 45.43837214
12.35168973, 45.43269399
12.32738820, 45.42613556
12.33092765, 45.44125060
12.33746776, 45.43878153
12.33358301, 45.43210147
12.33145391, 45.43857059
12.33693488, 45.44276982
12.33329818, 45.43961232
12.33389519, 45.44200026
12.33262305, 45.43860663
12.33787036, 45.43890421
12.32754825, 45.44170150
12.33266006, 45.43857135
12.33668377, 45.43972820
12.33679191, 45.43976429
12.33624386, 45.43374987
12.32537388, 45.43926999
12.34469910, 45.43912540
12.32760586, 45.44187930
12.33212410, 45.43020875
12.33161569, 45.44237670
12.33208820, 45.43002466
12.32436674, 45.43249551
12.35757850, 45.43396565
12.34216360, 45.43842639
12.34046788, 45.43962701
12.34543982, 45.43472443
12.32423417, 45.44149759
12.34829012, 45.43725423
12.35102664, 45.43328027
12.32956955, 45.43261590
12.34039816, 45.43514795
12.33038873, 45.43688494
12.34771303, 45.43692981
12.31537668, 45.44127071
12.33756119, 45.43956420
12.33900119, 45.44123511
12.34207125, 45.43843564
12.32444780, 45.44156636
12.33859894, 45.44240285
12.33851655, 45.43844599
12.34864707, 45.43540683
12.33743747, 45.43609690
12.33731307, 45.43592651
12.35347415, 45.43311257
12.33810807, 45.43579691
12.33034646, 45.43313144
12.33550262, 45.44228424
12.34000569, 45.43974521
12.35159496, 45.43221851
12.33024230, 45.43201881
12.34820183, 45.43456713
12.32429845, 45.43267990
12.33548112, 45.43242305
12.33172564, 45.43566198
12.31585964, 45.43383915
12.31546965, 45.43374987
12.33440790, 45.43678312
12.33345837, 45.43645339
12.32833868, 45.43283552
12.33563097, 45.43747689
12.33039403, 45.43175964
12.33905414, 45.42477865
12.33913951, 45.42512075
12.33966838, 45.42495031
12.33876633, 45.42513415
12.33887449, 45.42493050
12.33877511, 45.42520362
12.33904849, 45.42549989
12.32771751, 45.43126648
12.33436064, 45.43491029
12.33615957, 45.43374773
12.33705556, 45.43955787
12.34863838, 45.43693570
12.34074878, 45.43644194
12.32447694, 45.44105417
12.32894971, 45.43173411
12.31547105, 45.42823145
12.31588831, 45.42803840
12.32994285, 45.44170841
12.34044441, 45.43526404
12.34038393, 45.43542026
12.33988216, 45.43583561
12.33879255, 45.43651336
12.33975872, 45.43874595
12.34076062, 45.43889055
12.32839894, 45.43153513
12.31741432, 45.43242733
12.32632750, 45.43586944
12.32608571, 45.43885500
12.33590884, 45.43806677
12.32880581, 45.43964581
